Lab3/log/waveform_1.vcd
$date
	Sun Dec 29 04:03:00 2024
$end
$version
	Icarus Verilog
$end
$timescale
	1s
$end
$scope module TestBench $end
$var reg 1 ! Clk $end
$var reg 1 " Reset $end
$var integer 32 # counter [31:0] $end
$var integer 32 $ i [31:0] $end
$var integer 32 % outfile [31:0] $end
$scope module CPU $end
$var wire 1 ! clk_i $end
$var wire 1 " rst_i $end
$var wire 32 & IF_next_pc [31:0] $end
$var wire 32 ' ID_branch_addr [31:0] $end
$scope module ALU $end
$var wire 1 ( zero_o $end
$var wire 32 ) b_i [31:0] $end
$var wire 4 * aluctr_i [3:0] $end
$var wire 32 + a_i [31:0] $end
$var reg 32 , result_o [31:0] $end
$upscope $end
$scope module ALU_Control $end
$var wire 7 - funct7_i [6:0] $end
$var wire 3 . funct3_i [2:0] $end
$var wire 2 / aluop_i [1:0] $end
$var reg 4 0 aluctr_o [3:0] $end
$upscope $end
$scope module Branch_Predictor $end
$var wire 1 ! clk_i $end
$var wire 1 1 ex_flush_o $end
$var wire 1 ( ex_taken_i $end
$var wire 1 2 id_flush_o $end
$var wire 1 3 predict_o $end
$var wire 1 " rst_i $end
$var wire 2 4 if_pcsrc_o [1:0] $end
$var wire 1 5 id_branch_i $end
$var wire 1 6 ex_branch_i $end
$var reg 2 7 cur_state [1:0] $end
$var reg 2 8 next_state [1:0] $end
$upscope $end
$scope module Control $end
$var wire 6 9 part_opcode_i [5:0] $end
$var wire 1 : no_op_i $end
$var reg 2 ; aluop_o [1:0] $end
$var reg 1 < alusrc_o $end
$var reg 1 5 branch_o $end
$var reg 1 = memread_o $end
$var reg 1 > memtoreg_o $end
$var reg 1 ? memwrite_o $end
$var reg 1 @ regwrite_o $end
$upscope $end
$scope module Data_Memory $end
$var wire 1 ! clk_i $end
$var wire 32 A data_o [31:0] $end
$var wire 32 B data_i [31:0] $end
$var wire 32 C addr_i [31:0] $end
$var wire 1 D MemWrite_i $end
$var wire 1 E MemRead_i $end
$upscope $end
$scope module Forwarding $end
$var wire 1 F mem_valid_regwrite $end
$var wire 1 G wb_valid_regwrite $end
$var wire 1 H wb_regwrite_i $end
$var wire 5 I wb_rd_addr_i [4:0] $end
$var wire 1 J mem_regwrite_i $end
$var wire 5 K mem_rd_addr_i [4:0] $end
$var wire 5 L ex_rs2_addr_i [4:0] $end
$var wire 5 M ex_rs1_addr_i [4:0] $end
$var reg 2 N forward_a_o [1:0] $end
$var reg 2 O forward_b_o [1:0] $end
$upscope $end
$scope module Hazard_Detection $end
$var wire 5 P rs2_addr_i [4:0] $end
$var wire 5 Q rs1_addr_i [4:0] $end
$var wire 5 R ex_rd_addr_i [4:0] $end
$var wire 1 S ex_memread_i $end
$var reg 1 : no_op_o $end
$var reg 1 T pcwrite_o $end
$var reg 1 U stall_o $end
$upscope $end
$scope module Imm_Gen $end
$var wire 32 V instr_i [31:0] $end
$var wire 32 W immext_o [31:0] $end
$var reg 12 X imm [11:0] $end
$upscope $end
$scope module Instruction_Memory $end
$var wire 32 Y instr_o [31:0] $end
$var wire 32 Z addr_i [31:0] $end
$upscope $end
$scope module MUX_ALUsrc $end
$var wire 32 [ y_o [31:0] $end
$var wire 1 \ sel_i $end
$var wire 32 ] b_i [31:0] $end
$var wire 32 ^ a_i [31:0] $end
$upscope $end
$scope module MUX_ForwardA $end
$var wire 32 _ d_i [31:0] $end
$var wire 2 ` sel_i [1:0] $end
$var wire 32 a y_o [31:0] $end
$var wire 32 b c_i [31:0] $end
$var wire 32 c b_i [31:0] $end
$var wire 32 d a_i [31:0] $end
$scope module MUX1 $end
$var wire 1 e sel_i $end
$var wire 32 f y_o [31:0] $end
$var wire 32 g b_i [31:0] $end
$var wire 32 h a_i [31:0] $end
$upscope $end
$scope module MUX2 $end
$var wire 32 i b_i [31:0] $end
$var wire 1 j sel_i $end
$var wire 32 k y_o [31:0] $end
$var wire 32 l a_i [31:0] $end
$upscope $end
$scope module MUXFinal $end
$var wire 32 m a_i [31:0] $end
$var wire 32 n b_i [31:0] $end
$var wire 1 o sel_i $end
$var wire 32 p y_o [31:0] $end
$upscope $end
$upscope $end
$scope module MUX_ForwardB $end
$var wire 32 q d_i [31:0] $end
$var wire 2 r sel_i [1:0] $end
$var wire 32 s y_o [31:0] $end
$var wire 32 t c_i [31:0] $end
$var wire 32 u b_i [31:0] $end
$var wire 32 v a_i [31:0] $end
$scope module MUX1 $end
$var wire 1 w sel_i $end
$var wire 32 x y_o [31:0] $end
$var wire 32 y b_i [31:0] $end
$var wire 32 z a_i [31:0] $end
$upscope $end
$scope module MUX2 $end
$var wire 32 { b_i [31:0] $end
$var wire 1 | sel_i $end
$var wire 32 } y_o [31:0] $end
$var wire 32 ~ a_i [31:0] $end
$upscope $end
$scope module MUXFinal $end
$var wire 32 !" a_i [31:0] $end
$var wire 32 "" b_i [31:0] $end
$var wire 1 #" sel_i $end
$var wire 32 $" y_o [31:0] $end
$upscope $end
$upscope $end
$scope module MUX_MemtoReg $end
$var wire 32 %" y_o [31:0] $end
$var wire 1 &" sel_i $end
$var wire 32 '" b_i [31:0] $end
$var wire 32 (" a_i [31:0] $end
$upscope $end
$scope module MUX_PCSrc $end
$var wire 32 )" d_i [31:0] $end
$var wire 2 *" sel_i [1:0] $end
$var wire 32 +" y_o [31:0] $end
$var wire 32 ," c_i [31:0] $end
$var wire 32 -" b_i [31:0] $end
$var wire 32 ." a_i [31:0] $end
$scope module MUX1 $end
$var wire 1 /" sel_i $end
$var wire 32 0" y_o [31:0] $end
$var wire 32 1" b_i [31:0] $end
$var wire 32 2" a_i [31:0] $end
$upscope $end
$scope module MUX2 $end
$var wire 32 3" b_i [31:0] $end
$var wire 1 4" sel_i $end
$var wire 32 5" y_o [31:0] $end
$var wire 32 6" a_i [31:0] $end
$upscope $end
$scope module MUXFinal $end
$var wire 32 7" a_i [31:0] $end
$var wire 32 8" b_i [31:0] $end
$var wire 1 9" sel_i $end
$var wire 32 :" y_o [31:0] $end
$upscope $end
$upscope $end
$scope module MUX_correction_addr $end
$var wire 1 3 sel_i $end
$var wire 32 ;" y_o [31:0] $end
$var wire 32 <" b_i [31:0] $end
$var wire 32 =" a_i [31:0] $end
$upscope $end
$scope module PC $end
$var wire 1 T PCWrite_i $end
$var wire 1 ! clk_i $end
$var wire 32 >" pc_i [31:0] $end
$var wire 1 " rst_i $end
$var reg 32 ?" pc_o [31:0] $end
$upscope $end
$scope module Reg_EXMEM $end
$var wire 32 @" alu_result_i [31:0] $end
$var wire 1 ! clk_i $end
$var wire 32 A" rs2_data_i [31:0] $end
$var wire 1 " rst_i $end
$var wire 1 B" regwrite_i $end
$var wire 5 C" rd_addr_i [4:0] $end
$var wire 1 D" memwrite_i $end
$var wire 1 E" memtoreg_i $end
$var wire 1 S memread_i $end
$var reg 32 F" alu_result_o [31:0] $end
$var reg 1 E memread_o $end
$var reg 1 G" memtoreg_o $end
$var reg 1 D memwrite_o $end
$var reg 5 H" rd_addr_o [4:0] $end
$var reg 1 J regwrite_o $end
$var reg 32 I" rs2_data_o [31:0] $end
$upscope $end
$scope module Reg_IDEX $end
$var wire 2 J" aluop_i [1:0] $end
$var wire 1 < alusrc_i $end
$var wire 1 5 branch_i $end
$var wire 1 ! clk_i $end
$var wire 32 K" correction_addr_i [31:0] $end
$var wire 1 1 flush_i $end
$var wire 32 L" immext_i [31:0] $end
$var wire 1 = memread_i $end
$var wire 1 > memtoreg_i $end
$var wire 1 ? memwrite_i $end
$var wire 1 @ regwrite_i $end
$var wire 1 " rst_i $end
$var wire 32 M" rs2_data_i [31:0] $end
$var wire 5 N" rs2_addr_i [4:0] $end
$var wire 32 O" rs1_data_i [31:0] $end
$var wire 5 P" rs1_addr_i [4:0] $end
$var wire 5 Q" rd_addr_i [4:0] $end
$var wire 7 R" funct7_i [6:0] $end
$var wire 3 S" funct3_i [2:0] $end
$var reg 2 T" aluop_o [1:0] $end
$var reg 1 \ alusrc_o $end
$var reg 1 6 branch_o $end
$var reg 32 U" correction_addr_o [31:0] $end
$var reg 3 V" funct3_o [2:0] $end
$var reg 7 W" funct7_o [6:0] $end
$var reg 32 X" immext_o [31:0] $end
$var reg 1 S memread_o $end
$var reg 1 E" memtoreg_o $end
$var reg 1 D" memwrite_o $end
$var reg 5 Y" rd_addr_o [4:0] $end
$var reg 1 B" regwrite_o $end
$var reg 5 Z" rs1_addr_o [4:0] $end
$var reg 32 [" rs1_data_o [31:0] $end
$var reg 5 \" rs2_addr_o [4:0] $end
$var reg 32 ]" rs2_data_o [31:0] $end
$upscope $end
$scope module Reg_IFID $end
$var wire 1 ! clk_i $end
$var wire 1 2 flush_i $end
$var wire 32 ^" instr_addr_i [31:0] $end
$var wire 32 _" instr_i [31:0] $end
$var wire 32 `" next_pc_i [31:0] $end
$var wire 1 " rst_i $end
$var wire 1 U stall_i $end
$var reg 32 a" instr_addr_o [31:0] $end
$var reg 32 b" instr_o [31:0] $end
$var reg 32 c" next_pc_o [31:0] $end
$upscope $end
$scope module Reg_MEMWB $end
$var wire 32 d" alu_result_i [31:0] $end
$var wire 1 ! clk_i $end
$var wire 32 e" memdata_i [31:0] $end
$var wire 1 G" memtoreg_i $end
$var wire 5 f" rd_addr_i [4:0] $end
$var wire 1 J regwrite_i $end
$var wire 1 " rst_i $end
$var reg 32 g" alu_result_o [31:0] $end
$var reg 32 h" memdata_o [31:0] $end
$var reg 1 &" memtoreg_o $end
$var reg 5 i" rd_addr_o [4:0] $end
$var reg 1 H regwrite_o $end
$upscope $end
$scope module Registers $end
$var wire 5 j" RDaddr_i [4:0] $end
$var wire 32 k" RDdata_i [31:0] $end
$var wire 5 l" RS1addr_i [4:0] $end
$var wire 5 m" RS2addr_i [4:0] $end
$var wire 1 H RegWrite_i $end
$var wire 1 ! clk_i $end
$var wire 1 " rst_i $end
$var wire 32 n" RS2data_o [31:0] $end
$var wire 32 o" RS1data_o [31:0] $end
$var integer 32 p" i [31:0] $end
$upscope $end
$upscope $end
$upscope $end
$enddefinitions $end
#0
$dumpvars
bx p"
bx o"
bx n"
bx m"
bx l"
bx k"
bx j"
bx i"
bx h"
bx g"
bx f"
bx e"
bx d"
bx c"
bx b"
bx a"
bx `"
bx _"
bx ^"
bx ]"
bx \"
bx ["
bx Z"
bx Y"
bx X"
bx W"
bx V"
bx U"
bx T"
bx S"
bx R"
bx Q"
bx P"
bx O"
bx N"
bx M"
bx L"
bx K"
bx J"
bx I"
bx H"
xG"
bx F"
xE"
xD"
bx C"
xB"
bx A"
bx @"
bx ?"
bx >"
bx ="
bx <"
bx ;"
bx :"
x9"
bx 8"
bx 7"
bx 6"
bx 5"
x4"
b0 3"
bx 2"
bx 1"
bx 0"
x/"
bx ."
bx -"
bx ,"
bx +"
bx *"
b0 )"
bx ("
bx '"
x&"
bx %"
bx $"
x#"
bx ""
bx !"
bx ~
bx }
x|
b0 {
bx z
bx y
bx x
xw
bx v
bx u
bx t
bx s
bx r
b0 q
bx p
xo
bx n
bx m
bx l
bx k
xj
b0 i
bx h
bx g
bx f
xe
bx d
bx c
bx b
bx a
bx `
b0 _
bx ^
bx ]
x\
bx [
bx Z
bx Y
bx X
bx W
bx V
xU
xT
xS
bx R
bx Q
bx P
bx O
bx N
bx M
bx L
bx K
xJ
bx I
xH
xG
xF
xE
xD
bx C
bx B
bx A
x@
x?
x>
x=
x<
bx ;
x:
bx 9
bx 8
bx 7
x6
x5
bx 4
x3
x2
x1
bx 0
bx /
bx .
bx -
bx ,
bx +
bx *
bx )
x(
bx '
bx &
b11 %
b100000 $
b0 #
1"
0!
$end
#6
0/"
04"
b100 +"
b100 :"
b100 >"
b100 0"
b100 7"
02
1(
b0 ,
b0 @"
b0 '
b0 -"
b0 1"
b0 ="
09"
b0 )
b0 [
b0 4
b0 *"
05
0<
b0 ;
b0 J"
0?
0=
0>
0@
b0 ^
b0 s
b0 $"
b0 A"
b0 +
b0 a
b0 p
0w
0|
0#"
0e
0j
0o
b0 O"
b0 o"
b0 M"
b0 n"
b110000010011 Y
b110000010011 _"
b0 Q
b0 P
b0 9
b0 l"
b0 m"
b0 R"
b0 S"
b0 P"
b0 N"
b0 Q"
b0 W
b0 L"
b0 X
b0 ;"
b0 K"
b0 x
b0 !"
b0 f
b0 m
b0 5"
b0 8"
01
b0 *
b0 0
1T
0:
0U
b0 }
b0 ""
b0 k
b0 n
b0 A
b0 e"
0F
b0 O
b0 r
b0 N
b0 `
b0 c
b0 g
b0 u
b0 y
b0 %"
b0 k"
0G
b100 &
b100 ."
b100 2"
b100 `"
b0 Z
b0 ?"
b0 ^"
b0 V
b0 b"
b0 <"
b0 c"
b0 a"
b0 R
b0 C"
b0 Y"
b0 L
b0 \"
b0 M
b0 Z"
b0 .
b0 V"
b0 -
b0 W"
b0 ]
b0 X"
b0 v
b0 z
b0 ]"
b0 d
b0 h
b0 ["
b0 ,"
b0 6"
b0 U"
06
0\
b0 /
b0 T"
0D"
0S
0E"
0B"
b0 K
b0 H"
b0 f"
b0 B
b0 I"
b0 C
b0 b
b0 l
b0 t
b0 ~
b0 F"
b0 d"
0D
0E
0G"
0J
b0 I
b0 i"
b0 j"
b0 '"
b0 h"
b0 ("
b0 g"
0&"
0H
13
b0 8
b0 7
b100000 p"
0"
#12
1"
#25
1<
1@
b1000 +"
b1000 :"
b1000 >"
b1001 9
b11000 Q"
b100 ;"
b100 K"
b1000 0"
b1000 7"
b10000000000110100010011 Y
b10000000000110100010011 _"
b110000010011 V
b110000010011 b"
b100 <"
b100 c"
b1000 &
b1000 ."
b1000 2"
b1000 `"
b100 Z
b100 ?"
b100 ^"
b1 #
1!
#50
0!
#75
b1100 +"
b1100 :"
b1100 >"
b1100 0"
b1100 7"
b10000000000111000010011 Y
b10000000000111000010011 _"
b100 P
b100 m"
b100 N"
b11010 Q"
b100 W
b100 L"
b100 X
b1000 ;"
b1000 K"
b100 5"
b100 8"
b1100 &
b1100 ."
b1100 2"
b1100 `"
b1000 Z
b1000 ?"
b1000 ^"
b10000000000110100010011 V
b10000000000110100010011 b"
b1000 <"
b1000 c"
b1100 '
b1100 -"
b1100 1"
b1100 ="
b100 a"
b11000 R
b11000 C"
b11000 Y"
b100 ,"
b100 6"
b100 U"
1\
1B"
b10 #
1!
#100
0!
#125
0(
b100 ,
b100 @"
b10000 +"
b10000 :"
b10000 >"
1F
b100 )
b100 [
b1000 5"
b1000 8"
b11100 Q"
b1100 ;"
b1100 K"
b10000 0"
b10000 7"
b11111111111100000000011110010011 Y
b11111111111100000000011110010011 _"
b11000 K
b11000 H"
b11000 f"
1J
b11010 R
b11010 C"
b11010 Y"
b100 L
b100 \"
b100 ]
b100 X"
b1000 ,"
b1000 6"
b1000 U"
b10000000000111000010011 V
b10000000000111000010011 b"
b1100 <"
b1100 c"
b10000 '
b10000 -"
b10000 1"
b10000 ="
b1000 a"
b10000 &
b10000 ."
b10000 2"
b10000 `"
b1100 Z
b1100 ?"
b1100 ^"
b11 #
1!
#150
0!
#175
b10100 +"
b10100 :"
b10100 >"
b111110 M"
b111110 n"
b10100 0"
b10100 7"
b11110011010000110010110011 Y
b11110011010000110010110011 _"
b11111 P
b11111 m"
b1111111 R"
b11111 N"
b1111 Q"
b11111111111111111111111111111111 W
b11111111111111111111111111111111 L"
b111111111111 X
b10000 ;"
b10000 K"
b1100 5"
b1100 8"
b100 }
b100 ""
b100 k
b100 n
1G
b10100 &
b10100 ."
b10100 2"
b10100 `"
b10000 Z
b10000 ?"
b10000 ^"
b11111111111100000000011110010011 V
b11111111111100000000011110010011 b"
b10000 <"
b10000 c"
b1010 '
b1010 -"
b1010 1"
b1010 ="
b1100 a"
b11100 R
b11100 C"
b11100 Y"
b1100 ,"
b1100 6"
b1100 U"
b11010 K
b11010 H"
b11010 f"
b100 C
b100 b
b100 l
b100 t
b100 ~
b100 F"
b100 d"
b11000 I
b11000 i"
b11000 j"
1H
b100 #
1!
#200
0!
#225
b11111111111111111111111111111111 ,
b11111111111111111111111111111111 @"
b111110 ^
b111110 s
b111110 $"
b111110 A"
0<
b10 ;
b10 J"
b100 O"
b100 o"
b111000 M"
b111000 n"
b11000 +"
b11000 :"
b11000 >"
b100 c
b100 g
b100 u
b100 y
b100 %"
b100 k"
b11111111111111111111111111111111 )
b11111111111111111111111111111111 [
b111110 x
b111110 !"
b10000 5"
b10000 8"
b11010 Q
b11100 P
b11001 9
b11010 l"
b11100 m"
b1 R"
b11010 P"
b11100 N"
b11001 Q"
b0 W
b0 L"
b0 X
b10100 ;"
b10100 K"
b11000 0"
b11000 7"
b11111111111111010000110100010011 Y
b11111111111111010000110100010011 _"
b11010 I
b11010 i"
b11010 j"
b100 ("
b100 g"
b11100 K
b11100 H"
b11100 f"
b1111 R
b1111 C"
b1111 Y"
b11111 L
b11111 \"
b1111111 -
b1111111 W"
b11111111111111111111111111111111 ]
b11111111111111111111111111111111 X"
b111110 v
b111110 z
b111110 ]"
b10000 ,"
b10000 6"
b10000 U"
b11110011010000110010110011 V
b11110011010000110010110011 b"
b10100 <"
b10100 c"
b10000 '
b10000 -"
b10000 1"
b10000 ="
b10000 a"
b11000 &
b11000 ."
b11000 2"
b11000 `"
b10100 Z
b10100 ?"
b10100 ^"
b101 #
1!
#250
0!
#275
b11100 +"
b11100 :"
b11100 >"
1<
b0 ;
b0 J"
b100 ^
b100 s
b100 $"
b100 A"
b100 +
b100 a
b100 p
0(
b10000 ,
b10000 @"
b111110 M"
b111110 n"
1w
1|
b11100 0"
b11100 7"
b11001010110110000011 Y
b11001010110110000011 _"
b11111 P
b1001 9
b11111 m"
b1111111 R"
b11111 N"
b11010 Q"
b11111111111111111111111111111111 W
b11111111111111111111111111111111 L"
b111111111111 X
b11000 ;"
b11000 K"
b100 x
b100 !"
b100 f
b100 m
b10100 5"
b10100 8"
b100 )
b100 [
b1111 *
b1111 0
b0 }
b0 ""
b11111111111111111111111111111111 k
b11111111111111111111111111111111 n
b1 O
b1 r
b11100 &
b11100 ."
b11100 2"
b11100 `"
b11000 Z
b11000 ?"
b11000 ^"
b11111111111111010000110100010011 V
b11111111111111010000110100010011 b"
b11000 <"
b11000 c"
b10010 '
b10010 -"
b10010 1"
b10010 ="
b10100 a"
b11001 R
b11001 C"
b11001 Y"
b11100 L
b11100 \"
b11010 M
b11010 Z"
b1 -
b1 W"
b0 ]
b0 X"
b111000 v
b111000 z
b111000 ]"
b100 d
b100 h
b100 ["
b10100 ,"
b10100 6"
b10100 U"
0\
b10 /
b10 T"
b1111 K
b1111 H"
b1111 f"
b111110 B
b111110 I"
b11111111111111111111111111111111 C
b11111111111111111111111111111111 b
b11111111111111111111111111111111 l
b11111111111111111111111111111111 t
b11111111111111111111111111111111 ~
b11111111111111111111111111111111 F"
b11111111111111111111111111111111 d"
b11100 I
b11100 i"
b11100 j"
b110 #
1!
#300
0!
#325
b111110 ^
b111110 s
b111110 $"
b111110 A"
b10000 }
b10000 ""
b111110 x
b111110 !"
0w
0|
b11 ,
b11 @"
1=
1>
b11111111111111111111111111100111 O"
b11111111111111111111111111100111 o"
b0 M"
b0 n"
b100000 +"
b100000 :"
b100000 >"
b11111111111111111111111111111111 c
b11111111111111111111111111111111 g
b11111111111111111111111111111111 u
b11111111111111111111111111111111 y
b11111111111111111111111111111111 %"
b11111111111111111111111111111111 k"
b10000 k
b10000 n
b0 O
b0 r
b11000 5"
b11000 8"
b11111111111111111111111111111111 )
b11111111111111111111111111111111 [
b0 *
b0 0
b11001 Q
b0 P
b1 9
b11001 l"
b0 m"
b0 R"
b10 S"
b11001 P"
b0 N"
b11011 Q"
b0 W
b0 L"
b0 X
b11100 ;"
b11100 K"
b100000 0"
b100000 7"
b1101111000000110000110011 Y
b1101111000000110000110011 _"
b1111 I
b1111 i"
b1111 j"
b11111111111111111111111111111111 ("
b11111111111111111111111111111111 g"
b11001 K
b11001 H"
b11001 f"
b100 B
b100 I"
b10000 C
b10000 b
b10000 l
b10000 t
b10000 ~
b10000 F"
b10000 d"
b11010 R
b11010 C"
b11010 Y"
b11111 L
b11111 \"
b1111111 -
b1111111 W"
b11111111111111111111111111111111 ]
b11111111111111111111111111111111 X"
b111110 v
b111110 z
b111110 ]"
b11000 ,"
b11000 6"
b11000 U"
1\
b0 /
b0 T"
b11001010110110000011 V
b11001010110110000011 b"
b11100 <"
b11100 c"
b11000 '
b11000 -"
b11000 1"
b11000 ="
b11000 a"
b100000 &
b100000 ."
b100000 2"
b100000 `"
b11100 Z
b11100 ?"
b11100 ^"
b111 #
1!
#350
0!
#375
0@
b100100 +"
b100100 :"
b100100 >"
0T
1:
1U
0<
b0 ;
b0 J"
0=
0>
b11111111111111111111111111100101 M"
b11111111111111111111111111100101 n"
b10000 ,
b10000 @"
b0 ^
b0 s
b0 $"
b0 A"
b10000 +
b10000 a
b10000 p
b0 O"
b0 o"
1e
1j
b100100 0"
b100100 7"
b111111010000010001100011 Y
b111111010000010001100011 _"
b11000 Q
b11011 P
b11001 9
b11000 l"
b11011 m"
b0 S"
b11000 P"
b11011 N"
b11000 Q"
b100000 ;"
b100000 K"
b0 )
b0 [
b0 x
b0 !"
b10000 f
b10000 m
b11100 5"
b11100 8"
b11 }
b11 ""
b0 k
b0 n
b1 N
b1 `
b10000 c
b10000 g
b10000 u
b10000 y
b10000 %"
b10000 k"
b100100 &
b100100 ."
b100100 2"
b100100 `"
b100000 Z
b100000 ?"
b100000 ^"
b1101111000000110000110011 V
b1101111000000110000110011 b"
b100000 <"
b100000 c"
b11100 '
b11100 -"
b11100 1"
b11100 ="
b11100 a"
b11011 R
b11011 C"
b11011 Y"
b0 L
b0 \"
b11001 M
b11001 Z"
b10 .
b10 V"
b0 -
b0 W"
b0 ]
b0 X"
b0 v
b0 z
b0 ]"
b11111111111111111111111111100111 d
b11111111111111111111111111100111 h
b11111111111111111111111111100111 ["
b11100 ,"
b11100 6"
b11100 U"
1S
1E"
b11010 K
b11010 H"
b11010 f"
b111110 B
b111110 I"
b11 C
b11 b
b11 l
b11 t
b11 ~
b11 F"
b11 d"
b11001 I
b11001 i"
b11001 j"
b10000 ("
b10000 g"
b1000 #
1!
#400
0!
#425
b10000 ,
b10000 @"
b0 +
b0 a
b0 p
b10000 k
b10000 n
b10000 )
b10000 [
b0 f
b0 m
1#"
0e
0j
b10000 ^
b10000 s
b10000 $"
b10000 A"
b10 ;
b10 J"
1@
b11 c
b11 g
b11 u
b11 y
b11 %"
b11 k"
b10000 }
b10000 ""
b11101 A
b11101 e"
b10 O
b10 r
b0 N
b0 `
b11111111111111111111111111100101 x
b11111111111111111111111111100101 !"
b100000 5"
b100000 8"
1T
0:
0U
b11010 I
b11010 i"
b11010 j"
b11 ("
b11 g"
b11011 K
b11011 H"
b11011 f"
b0 B
b0 I"
b10000 C
b10000 b
b10000 l
b10000 t
b10000 ~
b10000 F"
b10000 d"
1E
1G"
b11000 R
b11000 C"
b11000 Y"
b11011 L
b11011 \"
b11000 M
b11000 Z"
b0 .
b0 V"
b11111111111111111111111111100101 v
b11111111111111111111111111100101 z
b11111111111111111111111111100101 ]"
b0 d
b0 h
b0 ["
b100000 ,"
b100000 6"
b100000 U"
0\
0S
0E"
0B"
b1001 #
1!
#450
0!
#475
b0 5"
b0 8"
1/"
14"
b1 4
b1 *"
12
b11101 )
b11101 [
b11101 ,
b11101 @"
b11101 x
b11101 !"
b0 }
b0 ""
b11101 ^
b11101 s
b11101 $"
b11101 A"
b0 +
b0 a
b0 p
b101000 +"
b101000 :"
b101000 >"
15
b1 ;
b1 J"
0@
b11 O"
b11 o"
b11111111111111111111111111111111 M"
b11111111111111111111111111111111 n"
1w
1|
0#"
0o
b101000 0"
b101000 7"
b11111110000000000000011011100011 Y
b11111110000000000000011011100011 _"
b11010 Q
b1111 P
b110001 9
b11010 l"
b1111 m"
b11010 P"
b1111 N"
b1000 Q"
b100 W
b100 L"
b100 X
b100100 ;"
b100100 K"
b0 A
b0 e"
0F
b1 O
b1 r
b0 N
b0 `
b11101 c
b11101 g
b11101 u
b11101 y
b11101 %"
b11101 k"
b101000 &
b101000 ."
b101000 2"
b101000 `"
b100100 Z
b100100 ?"
b100100 ^"
b111111010000010001100011 V
b111111010000010001100011 b"
b100100 <"
b100100 c"
b101000 '
b101000 -"
b101000 1"
b101000 ="
b100000 a"
b10 /
b10 T"
1B"
b11000 K
b11000 H"
b11000 f"
b10000 B
b10000 I"
0E
0G"
0J
b11011 I
b11011 i"
b11011 j"
b11101 '"
b11101 h"
b10000 ("
b10000 g"
1&"
b1010 #
1!
#500
0!
#525
b11111111111111111111111111111111 )
b11111111111111111111111111111111 [
b100100 5"
b100100 8"
b11111111111111111111111111111111 ^
b11111111111111111111111111111111 s
b11111111111111111111111111111111 $"
b11111111111111111111111111111111 A"
b11101 }
b11101 ""
0/"
04"
19"
b11111111111111111111111111111111 x
b11111111111111111111111111111111 !"
0w
0|
b11 +
b11 a
b11 p
b10 4
b10 *"
b100 ,
b100 @"
05
b0 ;
b0 J"
b0 O"
b0 o"
b0 M"
b0 n"
b100100 +"
b100100 :"
b100100 >"
b10000 c
b10000 g
b10000 u
b10000 y
b10000 %"
b10000 k"
0G
b11101 k
b11101 n
1F
b0 O
b0 r
b11 f
b11 m
11
b1000 *
b1000 0
b0 Q
b0 P
b0 9
b0 l"
b0 m"
b0 P"
b0 N"
b0 Q"
b0 W
b0 L"
b0 X
b0 ;"
b0 K"
b101100 0"
b101100 7"
b1100000000010111000100011 Y
b1100000000010111000100011 _"
b11000 I
b11000 i"
b11000 j"
b0 '"
b0 h"
0&"
0H
b11101 B
b11101 I"
b11101 C
b11101 b
b11101 l
b11101 t
b11101 ~
b11101 F"
b11101 d"
1J
b1000 R
b1000 C"
b1000 Y"
b1111 L
b1111 \"
b11010 M
b11010 Z"
b100 ]
b100 X"
b11111111111111111111111111111111 v
b11111111111111111111111111111111 z
b11111111111111111111111111111111 ]"
b11 d
b11 h
b11 ["
b100100 ,"
b100100 6"
b100100 U"
16
b1 /
b1 T"
0B"
b0 V
b0 b"
b0 <"
b0 c"
b0 '
b0 -"
b0 1"
b0 ="
b0 a"
b101100 &
b101100 ."
b101100 2"
b101100 `"
b101000 Z
b101000 ?"
b101000 ^"
b1011 #
1!
#550
0!
#575
1(
b0 )
b0 [
0/"
04"
09"
b0 ^
b0 s
b0 $"
b0 A"
b0 +
b0 a
b0 p
b101000 +"
b101000 :"
b101000 >"
02
b0 4
b0 *"
b0 ,
b0 @"
b101000 0"
b101000 7"
b11111110000000000000011011100011 Y
b11111110000000000000011011100011 _"
b0 x
b0 !"
b0 f
b0 m
b0 5"
b0 8"
01
b0 *
b0 0
b100 }
b100 ""
b100 k
b100 n
0F
b11101 c
b11101 g
b11101 u
b11101 y
b11101 %"
b11101 k"
1G
b1 7
b101000 &
b101000 ."
b101000 2"
b101000 `"
b100100 Z
b100100 ?"
b100100 ^"
b0 R
b0 C"
b0 Y"
b0 L
b0 \"
b0 M
b0 Z"
b0 ]
b0 X"
b0 v
b0 z
b0 ]"
b0 d
b0 h
b0 ["
b0 ,"
b0 6"
b0 U"
06
b0 /
b0 T"
b1000 K
b1000 H"
b1000 f"
b11111111111111111111111111111111 B
b11111111111111111111111111111111 I"
b100 C
b100 b
b100 l
b100 t
b100 ~
b100 F"
b100 d"
0J
b11101 ("
b11101 g"
1H
b1100 #
b1 8
1!
#600
0!
#625
1/"
14"
b1 4
b1 *"
12
15
b1 ;
b1 J"
b10000 +"
b10000 :"
b10000 >"
b100 c
b100 g
b100 u
b100 y
b100 %"
b100 k"
0G
b0 }
b0 ""
b0 k
b0 n
b110001 9
b1111111 R"
b1101 Q"
b11111111111111111111111111110110 W
b11111111111111111111111111110110 L"
b111111110110 X
b101000 ;"
b101000 K"
b10000 0"
b10000 7"
b1100000000010111000100011 Y
b1100000000010111000100011 _"
b1000 I
b1000 i"
b1000 j"
b100 ("
b100 g"
0H
b0 K
b0 H"
b0 f"
b0 B
b0 I"
b0 C
b0 b
b0 l
b0 t
b0 ~
b0 F"
b0 d"
b11111110000000000000011011100011 V
b11111110000000000000011011100011 b"
b101000 <"
b101000 c"
b10000 '
b10000 -"
b10000 1"
b10000 ="
b100100 a"
b101100 &
b101100 ."
b101100 2"
b101100 `"
b101000 Z
b101000 ?"
b101000 ^"
b1101 #
1!
#650
0!
#675
b101000 5"
b101000 8"
0/"
04"
b0 4
b0 *"
02
05
b0 ;
b0 J"
b10100 +"
b10100 :"
b10100 >"
b11110011010000110010110011 Y
b11110011010000110010110011 _"
b0 9
b0 R"
b0 Q"
b0 W
b0 L"
b0 X
b0 ;"
b0 K"
b10100 0"
b10100 7"
b1000 *
b1000 0
b0 c
b0 g
b0 u
b0 y
b0 %"
b0 k"
b10100 &
b10100 ."
b10100 2"
b10100 `"
b10000 Z
b10000 ?"
b10000 ^"
b0 V
b0 b"
b0 <"
b0 c"
b0 '
b0 -"
b0 1"
b0 ="
b0 a"
b1101 R
b1101 C"
b1101 Y"
b1111111 -
b1111111 W"
b11111111111111111111111111110110 ]
b11111111111111111111111111110110 X"
b101000 ,"
b101000 6"
b101000 U"
16
b1 /
b1 T"
b0 I
b0 i"
b0 j"
b0 ("
b0 g"
b1110 #
1!
#700
0!
