Lab3/log/waveform_2.vcd
$date
	Sun Dec 29 04:03:00 2024
$end
$version
	Icarus Verilog
$end
$timescale
	1s
$end
$scope module TestBench $end
$var reg 1 ! Clk $end
$var reg 1 " Reset $end
$var integer 32 # counter [31:0] $end
$var integer 32 $ i [31:0] $end
$var integer 32 % outfile [31:0] $end
$scope module CPU $end
$var wire 1 ! clk_i $end
$var wire 1 " rst_i $end
$var wire 32 & IF_next_pc [31:0] $end
$var wire 32 ' ID_branch_addr [31:0] $end
$scope module ALU $end
$var wire 1 ( zero_o $end
$var wire 32 ) b_i [31:0] $end
$var wire 4 * aluctr_i [3:0] $end
$var wire 32 + a_i [31:0] $end
$var reg 32 , result_o [31:0] $end
$upscope $end
$scope module ALU_Control $end
$var wire 7 - funct7_i [6:0] $end
$var wire 3 . funct3_i [2:0] $end
$var wire 2 / aluop_i [1:0] $end
$var reg 4 0 aluctr_o [3:0] $end
$upscope $end
$scope module Branch_Predictor $end
$var wire 1 ! clk_i $end
$var wire 1 1 ex_flush_o $end
$var wire 1 ( ex_taken_i $end
$var wire 1 2 id_flush_o $end
$var wire 1 3 predict_o $end
$var wire 1 " rst_i $end
$var wire 2 4 if_pcsrc_o [1:0] $end
$var wire 1 5 id_branch_i $end
$var wire 1 6 ex_branch_i $end
$var reg 2 7 cur_state [1:0] $end
$var reg 2 8 next_state [1:0] $end
$upscope $end
$scope module Control $end
$var wire 6 9 part_opcode_i [5:0] $end
$var wire 1 : no_op_i $end
$var reg 2 ; aluop_o [1:0] $end
$var reg 1 < alusrc_o $end
$var reg 1 5 branch_o $end
$var reg 1 = memread_o $end
$var reg 1 > memtoreg_o $end
$var reg 1 ? memwrite_o $end
$var reg 1 @ regwrite_o $end
$upscope $end
$scope module Data_Memory $end
$var wire 1 ! clk_i $end
$var wire 32 A data_o [31:0] $end
$var wire 32 B data_i [31:0] $end
$var wire 32 C addr_i [31:0] $end
$var wire 1 D MemWrite_i $end
$var wire 1 E MemRead_i $end
$upscope $end
$scope module Forwarding $end
$var wire 1 F mem_valid_regwrite $end
$var wire 1 G wb_valid_regwrite $end
$var wire 1 H wb_regwrite_i $end
$var wire 5 I wb_rd_addr_i [4:0] $end
$var wire 1 J mem_regwrite_i $end
$var wire 5 K mem_rd_addr_i [4:0] $end
$var wire 5 L ex_rs2_addr_i [4:0] $end
$var wire 5 M ex_rs1_addr_i [4:0] $end
$var reg 2 N forward_a_o [1:0] $end
$var reg 2 O forward_b_o [1:0] $end
$upscope $end
$scope module Hazard_Detection $end
$var wire 5 P rs2_addr_i [4:0] $end
$var wire 5 Q rs1_addr_i [4:0] $end
$var wire 5 R ex_rd_addr_i [4:0] $end
$var wire 1 S ex_memread_i $end
$var reg 1 : no_op_o $end
$var reg 1 T pcwrite_o $end
$var reg 1 U stall_o $end
$upscope $end
$scope module Imm_Gen $end
$var wire 32 V instr_i [31:0] $end
$var wire 32 W immext_o [31:0] $end
$var reg 12 X imm [11:0] $end
$upscope $end
$scope module Instruction_Memory $end
$var wire 32 Y instr_o [31:0] $end
$var wire 32 Z addr_i [31:0] $end
$upscope $end
$scope module MUX_ALUsrc $end
$var wire 32 [ y_o [31:0] $end
$var wire 1 \ sel_i $end
$var wire 32 ] b_i [31:0] $end
$var wire 32 ^ a_i [31:0] $end
$upscope $end
$scope module MUX_ForwardA $end
$var wire 32 _ d_i [31:0] $end
$var wire 2 ` sel_i [1:0] $end
$var wire 32 a y_o [31:0] $end
$var wire 32 b c_i [31:0] $end
$var wire 32 c b_i [31:0] $end
$var wire 32 d a_i [31:0] $end
$scope module MUX1 $end
$var wire 1 e sel_i $end
$var wire 32 f y_o [31:0] $end
$var wire 32 g b_i [31:0] $end
$var wire 32 h a_i [31:0] $end
$upscope $end
$scope module MUX2 $end
$var wire 32 i b_i [31:0] $end
$var wire 1 j sel_i $end
$var wire 32 k y_o [31:0] $end
$var wire 32 l a_i [31:0] $end
$upscope $end
$scope module MUXFinal $end
$var wire 32 m a_i [31:0] $end
$var wire 32 n b_i [31:0] $end
$var wire 1 o sel_i $end
$var wire 32 p y_o [31:0] $end
$upscope $end
$upscope $end
$scope module MUX_ForwardB $end
$var wire 32 q d_i [31:0] $end
$var wire 2 r sel_i [1:0] $end
$var wire 32 s y_o [31:0] $end
$var wire 32 t c_i [31:0] $end
$var wire 32 u b_i [31:0] $end
$var wire 32 v a_i [31:0] $end
$scope module MUX1 $end
$var wire 1 w sel_i $end
$var wire 32 x y_o [31:0] $end
$var wire 32 y b_i [31:0] $end
$var wire 32 z a_i [31:0] $end
$upscope $end
$scope module MUX2 $end
$var wire 32 { b_i [31:0] $end
$var wire 1 | sel_i $end
$var wire 32 } y_o [31:0] $end
$var wire 32 ~ a_i [31:0] $end
$upscope $end
$scope module MUXFinal $end
$var wire 32 !" a_i [31:0] $end
$var wire 32 "" b_i [31:0] $end
$var wire 1 #" sel_i $end
$var wire 32 $" y_o [31:0] $end
$upscope $end
$upscope $end
$scope module MUX_MemtoReg $end
$var wire 32 %" y_o [31:0] $end
$var wire 1 &" sel_i $end
$var wire 32 '" b_i [31:0] $end
$var wire 32 (" a_i [31:0] $end
$upscope $end
$scope module MUX_PCSrc $end
$var wire 32 )" d_i [31:0] $end
$var wire 2 *" sel_i [1:0] $end
$var wire 32 +" y_o [31:0] $end
$var wire 32 ," c_i [31:0] $end
$var wire 32 -" b_i [31:0] $end
$var wire 32 ." a_i [31:0] $end
$scope module MUX1 $end
$var wire 1 /" sel_i $end
$var wire 32 0" y_o [31:0] $end
$var wire 32 1" b_i [31:0] $end
$var wire 32 2" a_i [31:0] $end
$upscope $end
$scope module MUX2 $end
$var wire 32 3" b_i [31:0] $end
$var wire 1 4" sel_i $end
$var wire 32 5" y_o [31:0] $end
$var wire 32 6" a_i [31:0] $end
$upscope $end
$scope module MUXFinal $end
$var wire 32 7" a_i [31:0] $end
$var wire 32 8" b_i [31:0] $end
$var wire 1 9" sel_i $end
$var wire 32 :" y_o [31:0] $end
$upscope $end
$upscope $end
$scope module MUX_correction_addr $end
$var wire 1 3 sel_i $end
$var wire 32 ;" y_o [31:0] $end
$var wire 32 <" b_i [31:0] $end
$var wire 32 =" a_i [31:0] $end
$upscope $end
$scope module PC $end
$var wire 1 T PCWrite_i $end
$var wire 1 ! clk_i $end
$var wire 32 >" pc_i [31:0] $end
$var wire 1 " rst_i $end
$var reg 32 ?" pc_o [31:0] $end
$upscope $end
$scope module Reg_EXMEM $end
$var wire 32 @" alu_result_i [31:0] $end
$var wire 1 ! clk_i $end
$var wire 32 A" rs2_data_i [31:0] $end
$var wire 1 " rst_i $end
$var wire 1 B" regwrite_i $end
$var wire 5 C" rd_addr_i [4:0] $end
$var wire 1 D" memwrite_i $end
$var wire 1 E" memtoreg_i $end
$var wire 1 S memread_i $end
$var reg 32 F" alu_result_o [31:0] $end
$var reg 1 E memread_o $end
$var reg 1 G" memtoreg_o $end
$var reg 1 D memwrite_o $end
$var reg 5 H" rd_addr_o [4:0] $end
$var reg 1 J regwrite_o $end
$var reg 32 I" rs2_data_o [31:0] $end
$upscope $end
$scope module Reg_IDEX $end
$var wire 2 J" aluop_i [1:0] $end
$var wire 1 < alusrc_i $end
$var wire 1 5 branch_i $end
$var wire 1 ! clk_i $end
$var wire 32 K" correction_addr_i [31:0] $end
$var wire 1 1 flush_i $end
$var wire 32 L" immext_i [31:0] $end
$var wire 1 = memread_i $end
$var wire 1 > memtoreg_i $end
$var wire 1 ? memwrite_i $end
$var wire 1 @ regwrite_i $end
$var wire 1 " rst_i $end
$var wire 32 M" rs2_data_i [31:0] $end
$var wire 5 N" rs2_addr_i [4:0] $end
$var wire 32 O" rs1_data_i [31:0] $end
$var wire 5 P" rs1_addr_i [4:0] $end
$var wire 5 Q" rd_addr_i [4:0] $end
$var wire 7 R" funct7_i [6:0] $end
$var wire 3 S" funct3_i [2:0] $end
$var reg 2 T" aluop_o [1:0] $end
$var reg 1 \ alusrc_o $end
$var reg 1 6 branch_o $end
$var reg 32 U" correction_addr_o [31:0] $end
$var reg 3 V" funct3_o [2:0] $end
$var reg 7 W" funct7_o [6:0] $end
$var reg 32 X" immext_o [31:0] $end
$var reg 1 S memread_o $end
$var reg 1 E" memtoreg_o $end
$var reg 1 D" memwrite_o $end
$var reg 5 Y" rd_addr_o [4:0] $end
$var reg 1 B" regwrite_o $end
$var reg 5 Z" rs1_addr_o [4:0] $end
$var reg 32 [" rs1_data_o [31:0] $end
$var reg 5 \" rs2_addr_o [4:0] $end
$var reg 32 ]" rs2_data_o [31:0] $end
$upscope $end
$scope module Reg_IFID $end
$var wire 1 ! clk_i $end
$var wire 1 2 flush_i $end
$var wire 32 ^" instr_addr_i [31:0] $end
$var wire 32 _" instr_i [31:0] $end
$var wire 32 `" next_pc_i [31:0] $end
$var wire 1 " rst_i $end
$var wire 1 U stall_i $end
$var reg 32 a" instr_addr_o [31:0] $end
$var reg 32 b" instr_o [31:0] $end
$var reg 32 c" next_pc_o [31:0] $end
$upscope $end
$scope module Reg_MEMWB $end
$var wire 32 d" alu_result_i [31:0] $end
$var wire 1 ! clk_i $end
$var wire 32 e" memdata_i [31:0] $end
$var wire 1 G" memtoreg_i $end
$var wire 5 f" rd_addr_i [4:0] $end
$var wire 1 J regwrite_i $end
$var wire 1 " rst_i $end
$var reg 32 g" alu_result_o [31:0] $end
$var reg 32 h" memdata_o [31:0] $end
$var reg 1 &" memtoreg_o $end
$var reg 5 i" rd_addr_o [4:0] $end
$var reg 1 H regwrite_o $end
$upscope $end
$scope module Registers $end
$var wire 5 j" RDaddr_i [4:0] $end
$var wire 32 k" RDdata_i [31:0] $end
$var wire 5 l" RS1addr_i [4:0] $end
$var wire 5 m" RS2addr_i [4:0] $end
$var wire 1 H RegWrite_i $end
$var wire 1 ! clk_i $end
$var wire 1 " rst_i $end
$var wire 32 n" RS2data_o [31:0] $end
$var wire 32 o" RS1data_o [31:0] $end
$var integer 32 p" i [31:0] $end
$upscope $end
$upscope $end
$upscope $end
$enddefinitions $end
#0
$dumpvars
bx p"
bx o"
bx n"
bx m"
bx l"
bx k"
bx j"
bx i"
bx h"
bx g"
bx f"
bx e"
bx d"
bx c"
bx b"
bx a"
bx `"
bx _"
bx ^"
bx ]"
bx \"
bx ["
bx Z"
bx Y"
bx X"
bx W"
bx V"
bx U"
bx T"
bx S"
bx R"
bx Q"
bx P"
bx O"
bx N"
bx M"
bx L"
bx K"
bx J"
bx I"
bx H"
xG"
bx F"
xE"
xD"
bx C"
xB"
bx A"
bx @"
bx ?"
bx >"
bx ="
bx <"
bx ;"
bx :"
x9"
bx 8"
bx 7"
bx 6"
bx 5"
x4"
b0 3"
bx 2"
bx 1"
bx 0"
x/"
bx ."
bx -"
bx ,"
bx +"
bx *"
b0 )"
bx ("
bx '"
x&"
bx %"
bx $"
x#"
bx ""
bx !"
bx ~
bx }
x|
b0 {
bx z
bx y
bx x
xw
bx v
bx u
bx t
bx s
bx r
b0 q
bx p
xo
bx n
bx m
bx l
bx k
xj
b0 i
bx h
bx g
bx f
xe
bx d
bx c
bx b
bx a
bx `
b0 _
bx ^
bx ]
x\
bx [
bx Z
bx Y
bx X
bx W
bx V
xU
xT
xS
bx R
bx Q
bx P
bx O
bx N
bx M
bx L
bx K
xJ
bx I
xH
xG
xF
xE
xD
bx C
bx B
bx A
x@
x?
x>
x=
x<
bx ;
x:
bx 9
bx 8
bx 7
x6
x5
bx 4
x3
x2
x1
bx 0
bx /
bx .
bx -
bx ,
bx +
bx *
bx )
x(
bx '
bx &
b11 %
b100000 $
b0 #
1"
0!
$end
#6
0/"
04"
b100 +"
b100 :"
b100 >"
b100 0"
b100 7"
02
1(
b0 ,
b0 @"
b0 '
b0 -"
b0 1"
b0 ="
09"
b0 )
b0 [
b0 4
b0 *"
05
0<
b0 ;
b0 J"
0?
0=
0>
0@
b0 ^
b0 s
b0 $"
b0 A"
b0 +
b0 a
b0 p
0w
0|
0#"
0e
0j
0o
b0 O"
b0 o"
b0 M"
b0 n"
b10100000000000100010011 Y
b10100000000000100010011 _"
b0 Q
b0 P
b0 9
b0 l"
b0 m"
b0 R"
b0 S"
b0 P"
b0 N"
b0 Q"
b0 W
b0 L"
b0 X
b0 ;"
b0 K"
b0 x
b0 !"
b0 f
b0 m
b0 5"
b0 8"
01
b0 *
b0 0
1T
0:
0U
b0 }
b0 ""
b0 k
b0 n
b0 A
b0 e"
0F
b0 O
b0 r
b0 N
b0 `
b0 c
b0 g
b0 u
b0 y
b0 %"
b0 k"
0G
b100 &
b100 ."
b100 2"
b100 `"
b0 Z
b0 ?"
b0 ^"
b0 V
b0 b"
b0 <"
b0 c"
b0 a"
b0 R
b0 C"
b0 Y"
b0 L
b0 \"
b0 M
b0 Z"
b0 .
b0 V"
b0 -
b0 W"
b0 ]
b0 X"
b0 v
b0 z
b0 ]"
b0 d
b0 h
b0 ["
b0 ,"
b0 6"
b0 U"
06
0\
b0 /
b0 T"
0D"
0S
0E"
0B"
b0 K
b0 H"
b0 f"
b0 B
b0 I"
b0 C
b0 b
b0 l
b0 t
b0 ~
b0 F"
b0 d"
0D
0E
0G"
0J
b0 I
b0 i"
b0 j"
b0 '"
b0 h"
b0 ("
b0 g"
0&"
0H
13
b0 8
b0 7
b100000 p"
0"
#12
1"
#25
1<
1@
b1010 '
b1010 -"
b1010 1"
b1010 ="
b1000 +"
b1000 :"
b1000 >"
b101 P
b1001 9
b101 m"
b101 N"
b10 Q"
b101 W
b101 L"
b101 X
b100 ;"
b100 K"
b1000 0"
b1000 7"
b100000000000010010011 Y
b100000000000010010011 _"
b10100000000000100010011 V
b10100000000000100010011 b"
b100 <"
b100 c"
b1000 &
b1000 ."
b1000 2"
b1000 `"
b100 Z
b100 ?"
b100 ^"
b1 #
1!
#50
0!
#75
b1100 +"
b1100 :"
b1100 >"
0(
b101 ,
b101 @"
b1100 0"
b1100 7"
b10000000001000010001100011 Y
b10000000001000010001100011 _"
b1 P
b1 m"
b1 N"
b1 Q"
b1 W
b1 L"
b1 X
b1000 ;"
b1000 K"
b100 5"
b100 8"
b101 )
b101 [
b1100 &
b1100 ."
b1100 2"
b1100 `"
b1000 Z
b1000 ?"
b1000 ^"
b100000000000010010011 V
b100000000000010010011 b"
b1000 <"
b1000 c"
b110 '
b110 -"
b110 1"
b110 ="
b100 a"
b10 R
b10 C"
b10 Y"
b101 L
b101 \"
b101 ]
b101 X"
b100 ,"
b100 6"
b100 U"
1\
1B"
b10 #
1!
#100
0!
#125
1/"
14"
b1 4
b1 *"
12
b1 ,
b1 @"
15
0<
b1 ;
b1 J"
0@
b110000 +"
b110000 :"
b110000 >"
b101 }
b101 ""
b101 k
b101 n
1F
b1 )
b1 [
b0 5"
b0 8"
b1 Q
b0 P
b110001 9
b1 l"
b0 m"
b1 R"
b1 P"
b0 N"
b1000 Q"
b10100 W
b10100 L"
b10100 X
b1100 ;"
b1100 K"
b110000 0"
b110000 7"
b100001000000010010011 Y
b100001000000010010011 _"
b10 K
b10 H"
b10 f"
b101 C
b101 b
b101 l
b101 t
b101 ~
b101 F"
b101 d"
1J
b1 R
b1 C"
b1 Y"
b1 L
b1 \"
b1 ]
b1 X"
b1000 ,"
b1000 6"
b1000 U"
b10000000001000010001100011 V
b10000000001000010001100011 b"
b1100 <"
b1100 c"
b110000 '
b110000 -"
b110000 1"
b110000 ="
b1000 a"
b10000 &
b10000 ."
b10000 2"
b10000 `"
b1100 Z
b1100 ?"
b1100 ^"
b11 #
1!
#150
0!
#175
12
b1100 5"
b1100 8"
0/"
04"
19"
b1 +
b1 a
b1 p
05
b0 ;
b0 J"
b1100 +"
b1100 :"
b1100 >"
b10 4
b10 *"
0(
b1 ,
b1 @"
1o
b0 Y
b0 _"
b0 Q
b0 9
b0 l"
b0 R"
b0 P"
b0 Q"
b0 W
b0 L"
b0 X
b0 ;"
b0 K"
b110100 0"
b110100 7"
11
b0 )
b0 [
b1000 *
b1000 0
b1 }
b1 ""
b1 k
b1 n
b10 N
b10 `
b101 c
b101 g
b101 u
b101 y
b101 %"
b101 k"
1G
b110100 &
b110100 ."
b110100 2"
b110100 `"
b110000 Z
b110000 ?"
b110000 ^"
b0 V
b0 b"
b0 <"
b0 c"
b0 '
b0 -"
b0 1"
b0 ="
b0 a"
b1000 R
b1000 C"
b1000 Y"
b0 L
b0 \"
b1 M
b1 Z"
b1 -
b1 W"
b10100 ]
b10100 X"
b1100 ,"
b1100 6"
b1100 U"
16
0\
b1 /
b1 T"
0B"
b1 K
b1 H"
b1 f"
b1 C
b1 b
b1 l
b1 t
b1 ~
b1 F"
b1 d"
b10 I
b10 i"
b10 j"
b101 ("
b101 g"
1H
b100 #
1!
#200
0!
#225
1(
b0 ,
b0 @"
b0 +
b0 a
b0 p
0/"
04"
09"
0o
b10000 +"
b10000 :"
b10000 >"
02
b0 4
b0 *"
b1 c
b1 g
b1 u
b1 y
b1 %"
b1 k"
0F
b0 N
b0 `
b0 5"
b0 8"
01
b0 *
b0 0
b10000 0"
b10000 7"
b100001000000010010011 Y
b100001000000010010011 _"
b1 7
b1 I
b1 i"
b1 j"
b1 ("
b1 g"
b1000 K
b1000 H"
b1000 f"
0J
b0 R
b0 C"
b0 Y"
b0 M
b0 Z"
b0 -
b0 W"
b0 ]
b0 X"
b0 ,"
b0 6"
b0 U"
06
b0 /
b0 T"
b10000 &
b10000 ."
b10000 2"
b10000 `"
b1100 Z
b1100 ?"
b1100 ^"
b101 #
b1 8
1!
#250
0!
#275
b10100 +"
b10100 :"
b10100 >"
1<
1@
b1 O"
b1 o"
b1 M"
b1 n"
b10100 0"
b10100 7"
b1000001000100001100011 Y
b1000001000100001100011 _"
b1 Q
b1 P
b1001 9
b1 l"
b1 m"
b1 P"
b1 N"
b1 Q"
b1 W
b1 L"
b1 X
b10000 ;"
b10000 K"
b0 }
b0 ""
b0 k
b0 n
0G
b10100 &
b10100 ."
b10100 2"
b10100 `"
b10000 Z
b10000 ?"
b10000 ^"
b100001000000010010011 V
b100001000000010010011 b"
b10000 <"
b10000 c"
b1110 '
b1110 -"
b1110 1"
b1110 ="
b1100 a"
b0 K
b0 H"
b0 f"
b0 C
b0 b
b0 l
b0 t
b0 ~
b0 F"
b0 d"
b1000 I
b1000 i"
b1000 j"
0H
b110 #
1!
#300
0!
#325
1/"
14"
b1 4
b1 *"
12
b1 ^
b1 s
b1 $"
b1 A"
b1 +
b1 a
b1 p
0(
b10 ,
b10 @"
15
0<
b1 ;
b1 J"
0@
b101 M"
b101 n"
b100000 +"
b100000 :"
b100000 >"
b0 c
b0 g
b0 u
b0 y
b0 %"
b0 k"
b1 x
b1 !"
b1 f
b1 m
b0 5"
b0 8"
b1 )
b1 [
b10 P
b110001 9
b10 m"
b10 N"
b10000 Q"
b1000 W
b1000 L"
b1000 X
b10100 ;"
b10100 K"
b100000 0"
b100000 7"
b11111110000000000000110011100011 Y
b11111110000000000000110011100011 _"
b0 I
b0 i"
b0 j"
b0 ("
b0 g"
b1 R
b1 C"
b1 Y"
b1 L
b1 \"
b1 M
b1 Z"
b1 ]
b1 X"
b1 v
b1 z
b1 ]"
b1 d
b1 h
b1 ["
b10000 ,"
b10000 6"
b10000 U"
1\
1B"
b1000001000100001100011 V
b1000001000100001100011 b"
b10100 <"
b10100 c"
b100000 '
b100000 -"
b100000 1"
b100000 ="
b10000 a"
b11000 &
b11000 ."
b11000 2"
b11000 `"
b10100 Z
b10100 ?"
b10100 ^"
b111 #
1!
#350
0!
#375
12
b10100 5"
b10100 8"
b101 )
b101 [
0/"
04"
19"
b10 +
b10 a
b10 p
05
b0 ;
b0 J"
b0 O"
b0 o"
b0 M"
b0 n"
b10100 +"
b10100 :"
b10100 >"
b101 ^
b101 s
b101 $"
b101 A"
b10 4
b10 *"
0(
b11111111111111111111111111111101 ,
b11111111111111111111111111111101 @"
1o
b11111110000000001000111011100011 Y
b11111110000000001000111011100011 _"
b0 Q
b0 P
b0 9
b0 l"
b0 m"
b0 P"
b0 N"
b0 Q"
b0 W
b0 L"
b0 X
b0 ;"
b0 K"
b100100 0"
b100100 7"
b101 x
b101 !"
11
b1000 *
b1000 0
b10 N
b10 `
b10 }
b10 ""
b10 k
b10 n
1F
b100100 &
b100100 ."
b100100 2"
b100100 `"
b100000 Z
b100000 ?"
b100000 ^"
b0 V
b0 b"
b0 <"
b0 c"
b0 '
b0 -"
b0 1"
b0 ="
b0 a"
b10000 R
b10000 C"
b10000 Y"
b10 L
b10 \"
b1000 ]
b1000 X"
b101 v
b101 z
b101 ]"
b10100 ,"
b10100 6"
b10100 U"
16
0\
b1 /
b1 T"
0B"
b1 K
b1 H"
b1 f"
b1 B
b1 I"
b10 C
b10 b
b10 l
b10 t
b10 ~
b10 F"
b10 d"
1J
b1000 #
1!
#400
0!
#425
1(
b0 )
b0 [
0/"
04"
09"
03
b0 +
b0 a
b0 p
0o
b0 ^
b0 s
b0 $"
b0 A"
b11000 +"
b11000 :"
b11000 >"
02
b0 4
b0 *"
b0 ,
b0 @"
b10 c
b10 g
b10 u
b10 y
b10 %"
b10 k"
1G
b11111111111111111111111111111101 }
b11111111111111111111111111111101 ""
b11111111111111111111111111111101 k
b11111111111111111111111111111101 n
0F
b0 N
b0 `
b0 x
b0 !"
b0 f
b0 m
b0 5"
b0 8"
01
b0 *
b0 0
b11000 0"
b11000 7"
b11111110000000000000110011100011 Y
b11111110000000000000110011100011 _"
b10 7
b1 I
b1 i"
b1 j"
b10 ("
b10 g"
1H
b10000 K
b10000 H"
b10000 f"
b101 B
b101 I"
b11111111111111111111111111111101 C
b11111111111111111111111111111101 b
b11111111111111111111111111111101 l
b11111111111111111111111111111101 t
b11111111111111111111111111111101 ~
b11111111111111111111111111111101 F"
b11111111111111111111111111111101 d"
0J
b0 R
b0 C"
b0 Y"
b0 L
b0 \"
b0 M
b0 Z"
b0 ]
b0 X"
b0 v
b0 z
b0 ]"
b0 d
b0 h
b0 ["
b0 ,"
b0 6"
b0 U"
06
b0 /
b0 T"
b11000 &
b11000 ."
b11000 2"
b11000 `"
b10100 Z
b10100 ?"
b10100 ^"
b1001 #
b10 8
1!
#450
0!
#475
b11100 +"
b11100 :"
b11100 >"
15
b1 ;
b1 J"
b11100 0"
b11100 7"
b10011 Y
b10011 _"
b110001 9
b1111111 R"
b11001 Q"
b11111111111111111111111111111100 W
b11111111111111111111111111111100 L"
b111111111100 X
b1100 ;"
b1100 K"
b0 }
b0 ""
b0 k
b0 n
b11111111111111111111111111111101 c
b11111111111111111111111111111101 g
b11111111111111111111111111111101 u
b11111111111111111111111111111101 y
b11111111111111111111111111111101 %"
b11111111111111111111111111111101 k"
0G
b11100 &
b11100 ."
b11100 2"
b11100 `"
b11000 Z
b11000 ?"
b11000 ^"
b11111110000000000000110011100011 V
b11111110000000000000110011100011 b"
b11000 <"
b11000 c"
b1100 '
b1100 -"
b1100 1"
b1100 ="
b10100 a"
b0 K
b0 H"
b0 f"
b0 B
b0 I"
b0 C
b0 b
b0 l
b0 t
b0 ~
b0 F"
b0 d"
b10000 I
b10000 i"
b10000 j"
b11111111111111111111111111111101 ("
b11111111111111111111111111111101 g"
0H
b1010 #
1!
#500
0!
#525
19"
12
b10 4
b10 *"
05
1<
b0 ;
b0 J"
1@
b1100 +"
b1100 :"
b1100 >"
b0 c
b0 g
b0 u
b0 y
b0 %"
b0 k"
b1100 5"
b1100 8"
11
b1000 *
b1000 0
b1001 9
b0 R"
b0 Q"
b0 W
b0 L"
b0 X
b11000 ;"
b11000 K"
b100000 0"
b100000 7"
b0 I
b0 i"
b0 j"
b0 ("
b0 g"
b11001 R
b11001 C"
b11001 Y"
b1111111 -
b1111111 W"
b11111111111111111111111111111100 ]
b11111111111111111111111111111100 X"
b1100 ,"
b1100 6"
b1100 U"
16
b1 /
b1 T"
b10011 V
b10011 b"
b11100 <"
b11100 c"
b11000 '
b11000 -"
b11000 1"
b11000 ="
b11000 a"
b100000 &
b100000 ."
b100000 2"
b100000 `"
b11100 Z
b11100 ?"
b11100 ^"
b1011 #
1!
#550
0!
#575
0/"
04"
09"
13
0<
0@
b10000 +"
b10000 :"
b10000 >"
02
b0 4
b0 *"
b10000 0"
b10000 7"
b100001000000010010011 Y
b100001000000010010011 _"
b0 9
b0 ;"
b0 K"
b0 5"
b0 8"
01
b0 *
b0 0
b1 7
b10000 &
b10000 ."
b10000 2"
b10000 `"
b1100 Z
b1100 ?"
b1100 ^"
b0 V
b0 b"
b0 <"
b0 c"
b0 '
b0 -"
b0 1"
b0 ="
b0 a"
b0 R
b0 C"
b0 Y"
b0 -
b0 W"
b0 ]
b0 X"
b0 ,"
b0 6"
b0 U"
06
b0 /
b0 T"
b11001 K
b11001 H"
b11001 f"
b1100 #
b1 8
1!
#600
0!
#625
1<
1@
b10 O"
b10 o"
b10 M"
b10 n"
b10100 +"
b10100 :"
b10100 >"
b1 Q
b1 P
b1001 9
b1 l"
b1 m"
b1 P"
b1 N"
b1 Q"
b1 W
b1 L"
b1 X
b10000 ;"
b10000 K"
b10100 0"
b10100 7"
b1000001000100001100011 Y
b1000001000100001100011 _"
b11001 I
b11001 i"
b11001 j"
b0 K
b0 H"
b0 f"
b100001000000010010011 V
b100001000000010010011 b"
b10000 <"
b10000 c"
b1110 '
b1110 -"
b1110 1"
b1110 ="
b1100 a"
b10100 &
b10100 ."
b10100 2"
b10100 `"
b10000 Z
b10000 ?"
b10000 ^"
b1101 #
1!
#650
0!
#675
1/"
14"
b1 4
b1 *"
12
b100000 +"
b100000 :"
b100000 >"
15
0<
b1 ;
b1 J"
0@
b101 M"
b101 n"
b10 ^
b10 s
b10 $"
b10 A"
b10 +
b10 a
b10 p
0(
b11 ,
b11 @"
b100000 0"
b100000 7"
b11111110000000000000110011100011 Y
b11111110000000000000110011100011 _"
b10 P
b110001 9
b10 m"
b10 N"
b10000 Q"
b1000 W
b1000 L"
b1000 X
b10100 ;"
b10100 K"
b10 x
b10 !"
b10 f
b10 m
b0 5"
b0 8"
b1 )
b1 [
b11000 &
b11000 ."
b11000 2"
b11000 `"
b10100 Z
b10100 ?"
b10100 ^"
b1000001000100001100011 V
b1000001000100001100011 b"
b10100 <"
b10100 c"
b100000 '
b100000 -"
b100000 1"
b100000 ="
b10000 a"
b1 R
b1 C"
b1 Y"
b1 L
b1 \"
b1 M
b1 Z"
b1 ]
b1 X"
b10 v
b10 z
b10 ]"
b10 d
b10 h
b10 ["
b10000 ,"
b10000 6"
b10000 U"
1\
1B"
b0 I
b0 i"
b0 j"
b1110 #
1!
#700
0!
#725
12
b11 +
b11 a
b11 p
b10100 5"
b10100 8"
1o
0/"
04"
19"
b10 N
b10 `
b101 ^
b101 s
b101 $"
b101 A"
b10 4
b10 *"
0(
b11111111111111111111111111111110 ,
b11111111111111111111111111111110 @"
05
b0 ;
b0 J"
b0 O"
b0 o"
b0 M"
b0 n"
b10100 +"
b10100 :"
b10100 >"
b11 }
b11 ""
b11 k
b11 n
1F
b101 x
b101 !"
11
b101 )
b101 [
b1000 *
b1000 0
b0 Q
b0 P
b0 9
b0 l"
b0 m"
b0 P"
b0 N"
b0 Q"
b0 W
b0 L"
b0 X
b0 ;"
b0 K"
b100100 0"
b100100 7"
b11111110000000001000111011100011 Y
b11111110000000001000111011100011 _"
b1 K
b1 H"
b1 f"
b10 B
b10 I"
b11 C
b11 b
b11 l
b11 t
b11 ~
b11 F"
b11 d"
1J
b10000 R
b10000 C"
b10000 Y"
b10 L
b10 \"
b1000 ]
b1000 X"
b101 v
b101 z
b101 ]"
b10100 ,"
b10100 6"
b10100 U"
16
0\
b1 /
b1 T"
0B"
b0 V
b0 b"
b0 <"
b0 c"
b0 '
b0 -"
b0 1"
b0 ="
b0 a"
b100100 &
b100100 ."
b100100 2"
b100100 `"
b100000 Z
b100000 ?"
b100000 ^"
b1111 #
1!
#750
0!
#775
1(
b0 )
b0 [
0/"
04"
09"
03
b0 ^
b0 s
b0 $"
b0 A"
b11000 +"
b11000 :"
b11000 >"
02
b0 4
b0 *"
b0 ,
b0 @"
b0 +
b0 a
b0 p
0o
b11000 0"
b11000 7"
b11111110000000000000110011100011 Y
b11111110000000000000110011100011 _"
b0 x
b0 !"
b0 f
b0 m
b0 5"
b0 8"
01
b0 *
b0 0
b11111111111111111111111111111110 }
b11111111111111111111111111111110 ""
b11111111111111111111111111111110 k
b11111111111111111111111111111110 n
0F
b0 N
b0 `
b11 c
b11 g
b11 u
b11 y
b11 %"
b11 k"
1G
b10 7
b11000 &
b11000 ."
b11000 2"
b11000 `"
b10100 Z
b10100 ?"
b10100 ^"
b0 R
b0 C"
b0 Y"
b0 L
b0 \"
b0 M
b0 Z"
b0 ]
b0 X"
b0 v
b0 z
b0 ]"
b0 d
b0 h
b0 ["
b0 ,"
b0 6"
b0 U"
06
b0 /
b0 T"
b10000 K
b10000 H"
b10000 f"
b101 B
b101 I"
b11111111111111111111111111111110 C
b11111111111111111111111111111110 b
b11111111111111111111111111111110 l
b11111111111111111111111111111110 t
b11111111111111111111111111111110 ~
b11111111111111111111111111111110 F"
b11111111111111111111111111111110 d"
0J
b1 I
b1 i"
b1 j"
b11 ("
b11 g"
1H
b10000 #
b10 8
1!
#800
0!
