Lab2/log/waveform_3.vcd
$date
	Sun Dec 29 04:03:05 2024
$end
$version
	Icarus Verilog
$end
$timescale
	1s
$end
$scope module TestBench $end
$var reg 1 ! Clk $end
$var reg 1 " Reset $end
$var integer 32 # counter [31:0] $end
$var integer 32 $ flush [31:0] $end
$var integer 32 % i [31:0] $end
$var integer 32 & outfile [31:0] $end
$var integer 32 ' stall [31:0] $end
$scope module CPU $end
$var wire 1 ! clk_i $end
$var wire 1 " rst_i $end
$scope module ALU $end
$var wire 32 ( b_i [31:0] $end
$var wire 4 ) aluctr_i [3:0] $end
$var wire 32 * a_i [31:0] $end
$var reg 32 + result_o [31:0] $end
$upscope $end
$scope module ALU_Control $end
$var wire 7 , funct7_i [6:0] $end
$var wire 3 - funct3_i [2:0] $end
$var wire 2 . aluop_i [1:0] $end
$var reg 4 / aluctr_o [3:0] $end
$upscope $end
$scope module Control $end
$var wire 6 0 part_opcode_i [5:0] $end
$var wire 1 1 no_op_i $end
$var reg 2 2 aluop_o [1:0] $end
$var reg 1 3 alusrc_o $end
$var reg 1 4 branch_o $end
$var reg 1 5 memread_o $end
$var reg 1 6 memtoreg_o $end
$var reg 1 7 memwrite_o $end
$var reg 1 8 regwrite_o $end
$upscope $end
$scope module Data_Memory $end
$var wire 1 ! clk_i $end
$var wire 32 9 data_o [31:0] $end
$var wire 32 : data_i [31:0] $end
$var wire 32 ; addr_i [31:0] $end
$var wire 1 < MemWrite_i $end
$var wire 1 = MemRead_i $end
$upscope $end
$scope module Flush $end
$var wire 1 4 branch_i $end
$var wire 1 " rst_i $end
$var wire 32 > rs2_data_i [31:0] $end
$var wire 32 ? rs1_data_i [31:0] $end
$var reg 1 @ flush_o $end
$upscope $end
$scope module Forwarding $end
$var wire 1 A mem_valid_regwrite $end
$var wire 1 B wb_valid_regwrite $end
$var wire 1 C wb_regwrite_i $end
$var wire 5 D wb_rd_addr_i [4:0] $end
$var wire 1 E mem_regwrite_i $end
$var wire 5 F mem_rd_addr_i [4:0] $end
$var wire 5 G ex_rs2_addr_i [4:0] $end
$var wire 5 H ex_rs1_addr_i [4:0] $end
$var reg 2 I forward_a_o [1:0] $end
$var reg 2 J forward_b_o [1:0] $end
$upscope $end
$scope module Hazard_Detection $end
$var wire 5 K rs2_addr_i [4:0] $end
$var wire 5 L rs1_addr_i [4:0] $end
$var wire 5 M ex_rd_addr_i [4:0] $end
$var wire 1 N ex_memread_i $end
$var reg 1 1 no_op_o $end
$var reg 1 O pcwrite_o $end
$var reg 1 P stall_o $end
$upscope $end
$scope module Imm_Gen $end
$var wire 32 Q instr_i [31:0] $end
$var wire 32 R immext_o [31:0] $end
$var reg 12 S imm [11:0] $end
$upscope $end
$scope module Instruction_Memory $end
$var wire 32 T instr_o [31:0] $end
$var wire 32 U addr_i [31:0] $end
$upscope $end
$scope module MUX_ALUsrc $end
$var wire 32 V y_o [31:0] $end
$var wire 1 W sel_i $end
$var wire 32 X b_i [31:0] $end
$var wire 32 Y a_i [31:0] $end
$upscope $end
$scope module MUX_ForwardA $end
$var wire 32 Z d_i [31:0] $end
$var wire 2 [ sel_i [1:0] $end
$var wire 32 \ y_o [31:0] $end
$var wire 32 ] c_i [31:0] $end
$var wire 32 ^ b_i [31:0] $end
$var wire 32 _ a_i [31:0] $end
$scope module MUX1 $end
$var wire 1 ` sel_i $end
$var wire 32 a y_o [31:0] $end
$var wire 32 b b_i [31:0] $end
$var wire 32 c a_i [31:0] $end
$upscope $end
$scope module MUX2 $end
$var wire 32 d b_i [31:0] $end
$var wire 1 e sel_i $end
$var wire 32 f y_o [31:0] $end
$var wire 32 g a_i [31:0] $end
$upscope $end
$scope module MUXFinal $end
$var wire 32 h a_i [31:0] $end
$var wire 32 i b_i [31:0] $end
$var wire 1 j sel_i $end
$var wire 32 k y_o [31:0] $end
$upscope $end
$upscope $end
$scope module MUX_ForwardB $end
$var wire 32 l d_i [31:0] $end
$var wire 2 m sel_i [1:0] $end
$var wire 32 n y_o [31:0] $end
$var wire 32 o c_i [31:0] $end
$var wire 32 p b_i [31:0] $end
$var wire 32 q a_i [31:0] $end
$scope module MUX1 $end
$var wire 1 r sel_i $end
$var wire 32 s y_o [31:0] $end
$var wire 32 t b_i [31:0] $end
$var wire 32 u a_i [31:0] $end
$upscope $end
$scope module MUX2 $end
$var wire 32 v b_i [31:0] $end
$var wire 1 w sel_i $end
$var wire 32 x y_o [31:0] $end
$var wire 32 y a_i [31:0] $end
$upscope $end
$scope module MUXFinal $end
$var wire 32 z a_i [31:0] $end
$var wire 32 { b_i [31:0] $end
$var wire 1 | sel_i $end
$var wire 32 } y_o [31:0] $end
$upscope $end
$upscope $end
$scope module MUX_MemtoReg $end
$var wire 32 ~ y_o [31:0] $end
$var wire 1 !" sel_i $end
$var wire 32 "" b_i [31:0] $end
$var wire 32 #" a_i [31:0] $end
$upscope $end
$scope module MUX_PCSrc $end
$var wire 1 @ sel_i $end
$var wire 32 $" y_o [31:0] $end
$var wire 32 %" b_i [31:0] $end
$var wire 32 &" a_i [31:0] $end
$upscope $end
$scope module PC $end
$var wire 1 O PCWrite_i $end
$var wire 1 ! clk_i $end
$var wire 32 '" pc_i [31:0] $end
$var wire 1 " rst_i $end
$var reg 32 (" pc_o [31:0] $end
$upscope $end
$scope module Reg_EXMEM $end
$var wire 32 )" alu_result_i [31:0] $end
$var wire 1 ! clk_i $end
$var wire 32 *" rs2_data_i [31:0] $end
$var wire 1 " rst_i $end
$var wire 1 +" regwrite_i $end
$var wire 5 ," rd_addr_i [4:0] $end
$var wire 1 -" memwrite_i $end
$var wire 1 ." memtoreg_i $end
$var wire 1 N memread_i $end
$var reg 32 /" alu_result_o [31:0] $end
$var reg 1 = memread_o $end
$var reg 1 0" memtoreg_o $end
$var reg 1 < memwrite_o $end
$var reg 5 1" rd_addr_o [4:0] $end
$var reg 1 E regwrite_o $end
$var reg 32 2" rs2_data_o [31:0] $end
$upscope $end
$scope module Reg_IDEX $end
$var wire 2 3" aluop_i [1:0] $end
$var wire 1 3 alusrc_i $end
$var wire 1 ! clk_i $end
$var wire 32 4" immext_i [31:0] $end
$var wire 1 5 memread_i $end
$var wire 1 6 memtoreg_i $end
$var wire 1 7 memwrite_i $end
$var wire 1 8 regwrite_i $end
$var wire 1 " rst_i $end
$var wire 32 5" rs2_data_i [31:0] $end
$var wire 5 6" rs2_addr_i [4:0] $end
$var wire 32 7" rs1_data_i [31:0] $end
$var wire 5 8" rs1_addr_i [4:0] $end
$var wire 5 9" rd_addr_i [4:0] $end
$var wire 7 :" funct7_i [6:0] $end
$var wire 3 ;" funct3_i [2:0] $end
$var reg 2 <" aluop_o [1:0] $end
$var reg 1 W alusrc_o $end
$var reg 3 =" funct3_o [2:0] $end
$var reg 7 >" funct7_o [6:0] $end
$var reg 32 ?" immext_o [31:0] $end
$var reg 1 N memread_o $end
$var reg 1 ." memtoreg_o $end
$var reg 1 -" memwrite_o $end
$var reg 5 @" rd_addr_o [4:0] $end
$var reg 1 +" regwrite_o $end
$var reg 5 A" rs1_addr_o [4:0] $end
$var reg 32 B" rs1_data_o [31:0] $end
$var reg 5 C" rs2_addr_o [4:0] $end
$var reg 32 D" rs2_data_o [31:0] $end
$upscope $end
$scope module Reg_IFID $end
$var wire 1 ! clk_i $end
$var wire 1 @ flush_i $end
$var wire 32 E" instr_addr_i [31:0] $end
$var wire 32 F" instr_i [31:0] $end
$var wire 1 " rst_i $end
$var wire 1 P stall_i $end
$var reg 32 G" instr_addr_o [31:0] $end
$var reg 32 H" instr_o [31:0] $end
$upscope $end
$scope module Reg_MEMWB $end
$var wire 32 I" alu_result_i [31:0] $end
$var wire 1 ! clk_i $end
$var wire 32 J" memdata_i [31:0] $end
$var wire 1 0" memtoreg_i $end
$var wire 5 K" rd_addr_i [4:0] $end
$var wire 1 E regwrite_i $end
$var wire 1 " rst_i $end
$var reg 32 L" alu_result_o [31:0] $end
$var reg 32 M" memdata_o [31:0] $end
$var reg 1 !" memtoreg_o $end
$var reg 5 N" rd_addr_o [4:0] $end
$var reg 1 C regwrite_o $end
$upscope $end
$scope module Registers $end
$var wire 5 O" RDaddr_i [4:0] $end
$var wire 32 P" RDdata_i [31:0] $end
$var wire 5 Q" RS1addr_i [4:0] $end
$var wire 5 R" RS2addr_i [4:0] $end
$var wire 1 C RegWrite_i $end
$var wire 1 ! clk_i $end
$var wire 1 " rst_i $end
$var wire 32 S" RS2data_o [31:0] $end
$var wire 32 T" RS1data_o [31:0] $end
$var integer 32 U" i [31:0] $end
$upscope $end
$upscope $end
$upscope $end
$enddefinitions $end
#0
$dumpvars
bx U"
bx T"
bx S"
bx R"
bx Q"
bx P"
bx O"
bx N"
bx M"
bx L"
bx K"
bx J"
bx I"
bx H"
bx G"
bx F"
bx E"
bx D"
bx C"
bx B"
bx A"
bx @"
bx ?"
bx >"
bx ="
bx <"
bx ;"
bx :"
bx 9"
bx 8"
bx 7"
bx 6"
bx 5"
bx 4"
bx 3"
bx 2"
bx 1"
x0"
bx /"
x."
x-"
bx ,"
x+"
bx *"
bx )"
bx ("
bx '"
bx &"
bx %"
bx $"
bx #"
bx ""
x!"
bx ~
bx }
x|
bx {
bx z
bx y
bx x
xw
b0 v
bx u
bx t
bx s
xr
bx q
bx p
bx o
bx n
bx m
b0 l
bx k
xj
bx i
bx h
bx g
bx f
xe
b0 d
bx c
bx b
bx a
x`
bx _
bx ^
bx ]
bx \
bx [
b0 Z
bx Y
bx X
xW
bx V
bx U
bx T
bx S
bx R
bx Q
xP
xO
xN
bx M
bx L
bx K
bx J
bx I
bx H
bx G
bx F
xE
bx D
xC
xB
xA
x@
bx ?
bx >
x=
x<
bx ;
bx :
bx 9
x8
x7
x6
x5
x4
x3
bx 2
x1
bx 0
bx /
bx .
bx -
bx ,
bx +
bx *
bx )
bx (
b0 '
b11 &
b100000 %
b0 $
b0 #
1"
0!
$end
#6
b0 +
b0 )"
b0 %"
b0 (
b0 V
04
03
b0 2
b0 3"
07
05
06
08
b0 Y
b0 n
b0 }
b0 *"
b0 *
b0 \
b0 k
0r
0w
0|
0`
0e
0j
b0 ?
b0 7"
b0 T"
b0 >
b0 5"
b0 S"
b100 $"
b100 '"
b10010000000011 T
b10010000000011 F"
b0 L
b0 K
b0 0
b0 Q"
b0 R"
b0 :"
b0 ;"
b0 8"
b0 6"
b0 9"
b0 R
b0 4"
b0 S
b0 s
b0 z
b0 a
b0 h
b0 )
b0 /
1O
01
0P
b0 x
b0 {
b0 f
b0 i
b0 9
b0 J"
0A
b0 J
b0 m
b0 I
b0 [
b0 ^
b0 b
b0 p
b0 t
b0 ~
b0 P"
0B
b100 &"
b0 U
b0 ("
b0 E"
b0 Q
b0 H"
b0 G"
b0 M
b0 ,"
b0 @"
b0 G
b0 C"
b0 H
b0 A"
b0 -
b0 ="
b0 ,
b0 >"
b0 X
b0 ?"
b0 q
b0 u
b0 D"
b0 _
b0 c
b0 B"
0W
b0 .
b0 <"
0-"
0N
0."
0+"
b0 F
b0 1"
b0 K"
b0 :
b0 2"
b0 ;
b0 ]
b0 g
b0 o
b0 y
b0 /"
b0 I"
0<
0=
00"
0E
b0 D
b0 N"
b0 O"
b0 ""
b0 M"
b0 #"
b0 L"
0!"
0C
0@
b100000 U"
0"
#12
1"
#25
13
15
16
18
b1 0
b10 ;"
b1000 9"
b1000 $"
b1000 '"
b100001000000010010110011 T
b100001000000010010110011 F"
b10010000000011 Q
b10010000000011 H"
b1000 &"
b100 U
b100 ("
b100 E"
b1 #
1!
#50
0!
#75
08
0O
11
1P
03
b0 2
b0 3"
05
06
b1100 $"
b1100 '"
b10000000010010100000011 T
b10000000010010100000011 F"
b1000 L
b1000 K
b11001 0
b1000 Q"
b1000 R"
b0 ;"
b1000 8"
b1000 6"
b1001 9"
b1100 &"
b1000 U
b1000 ("
b1000 E"
b100001000000010010110011 Q
b100001000000010010110011 H"
b100 %"
b100 G"
b1000 M
b1000 ,"
b1000 @"
b10 -
b10 ="
1W
1N
1."
1+"
b10 #
1!
#100
0!
#125
1|
1j
b10 J
b10 m
b10 I
b10 [
b10 2
b10 3"
18
b101 9
b101 J"
1A
1O
01
0P
b1000 F
b1000 1"
b1000 K"
1=
10"
1E
b1001 M
b1001 ,"
b1001 @"
b1000 G
b1000 C"
b1000 H
b1000 A"
b0 -
b0 ="
0W
0N
0."
0+"
b11 #
b1 '
1!
#150
0!
#175
b101 (
b101 V
b1010 +
b1010 )"
b101 Y
b101 n
b101 }
b101 *"
b101 *
b101 \
b101 k
b101 s
b101 z
b101 a
b101 h
13
b0 2
b0 3"
15
16
1r
1w
0|
1`
1e
0j
b0 ?
b0 7"
b0 T"
b0 >
b0 5"
b0 S"
b10000 $"
b10000 '"
b101001010000010110110011 T
b101001010000010110110011 F"
b0 L
b100 K
b1 0
b0 Q"
b100 R"
b10 ;"
b0 8"
b100 6"
b1010 9"
b100 R
b100 4"
b100 S
b0 9
b0 J"
0A
b1 J
b1 m
b1 I
b1 [
b101 ^
b101 b
b101 p
b101 t
b101 ~
b101 P"
1B
b10000 &"
b1100 U
b1100 ("
b1100 E"
b10000000010010100000011 Q
b10000000010010100000011 H"
b10000 %"
b1000 G"
b10 .
b10 <"
1+"
b1001 F
b1001 1"
b1001 K"
0=
00"
0E
b1000 D
b1000 N"
b1000 O"
b101 ""
b101 M"
1!"
1C
b100 #
1!
#200
0!
#225
b0 Y
b0 n
b0 }
b0 *"
b0 *
b0 \
b0 k
b1010 x
b1010 {
b1010 f
b1010 i
b0 s
b0 z
b0 a
b0 h
0r
0w
0`
0e
b100 +
b100 )"
03
05
06
08
b0 ^
b0 b
b0 p
b0 t
b0 ~
b0 P"
0B
1A
b0 J
b0 m
b0 I
b0 [
b100 (
b100 V
0O
11
1P
b1010 L
b1010 K
b11001 0
b1010 Q"
b1010 R"
b0 ;"
b1010 8"
b1010 6"
b1011 9"
b0 R
b0 4"
b0 S
b10100 $"
b10100 '"
b100000000010011000000011 T
b100000000010011000000011 F"
b1001 D
b1001 N"
b1001 O"
b0 ""
b0 M"
0!"
0C
b101 :
b101 2"
b1010 ;
b1010 ]
b1010 g
b1010 o
b1010 y
b1010 /"
b1010 I"
1E
b1010 M
b1010 ,"
b1010 @"
b100 G
b100 C"
b0 H
b0 A"
b10 -
b10 ="
b100 X
b100 ?"
1W
b0 .
b0 <"
1N
1."
b101001010000010110110011 Q
b101001010000010110110011 H"
b1100 %"
b1100 G"
b10100 &"
b10000 U
b10000 ("
b10000 E"
b101 #
1!
#250
0!
#275
b100 Y
b100 n
b100 }
b100 *"
b100 *
b100 \
b100 k
b1000 +
b1000 )"
b10 2
b10 3"
18
1|
1j
b100 (
b100 V
1O
01
0P
b10 J
b10 m
b10 I
b10 [
b100 x
b100 {
b100 f
b100 i
b110 9
b110 J"
b1010 ^
b1010 b
b1010 p
b1010 t
b1010 ~
b1010 P"
1B
b1011 M
b1011 ,"
b1011 @"
b1010 G
b1010 C"
b1010 H
b1010 A"
b0 -
b0 ="
b0 X
b0 ?"
0W
0N
0."
0+"
b1010 F
b1010 1"
b1010 K"
b0 :
b0 2"
b100 ;
b100 ]
b100 g
b100 o
b100 y
b100 /"
b100 I"
1=
10"
b1010 #"
b1010 L"
1C
b110 #
b10 '
1!
#300
0!
#325
b110 s
b110 z
b110 a
b110 h
b110 (
b110 V
b1100 +
b1100 )"
1r
1w
0|
1`
1e
0j
b110 Y
b110 n
b110 }
b110 *"
b110 *
b110 \
b110 k
13
b0 2
b0 3"
15
16
b101 >
b101 5"
b101 S"
b110 ^
b110 b
b110 p
b110 t
b110 ~
b110 P"
b1 J
b1 m
b1 I
b1 [
b0 x
b0 {
b0 f
b0 i
b0 9
b0 J"
0A
b0 L
b1000 K
b1 0
b0 Q"
b1000 R"
b10 ;"
b0 8"
b1000 6"
b1100 9"
b1000 R
b1000 4"
b1000 S
b11000 $"
b11000 '"
b110001100000011010110011 T
b110001100000011010110011 F"
b1010 D
b1010 N"
b1010 O"
b110 ""
b110 M"
b100 #"
b100 L"
1!"
b1011 F
b1011 1"
b1011 K"
b100 :
b100 2"
b1000 ;
b1000 ]
b1000 g
b1000 o
b1000 y
b1000 /"
b1000 I"
0=
00"
0E
b10 .
b10 <"
1+"
b100000000010011000000011 Q
b100000000010011000000011 H"
b100000 %"
b10000 G"
b11000 &"
b10100 U
b10100 ("
b10100 E"
b111 #
1!
#350
0!
#375
08
b1100 x
b1100 {
b1100 f
b1100 i
b101 Y
b101 n
b101 }
b101 *"
b0 *
b0 \
b0 k
0O
11
1P
03
b0 2
b0 3"
05
06
b0 >
b0 5"
b0 S"
b1000 +
b1000 )"
0r
0w
0`
0e
b101 s
b101 z
b0 a
b0 h
b11100 $"
b11100 '"
b110000000010011100000011 T
b110000000010011100000011 F"
b1100 L
b1100 K
b11001 0
b1100 Q"
b1100 R"
b0 ;"
b1100 8"
b1100 6"
b1101 9"
b0 R
b0 4"
b0 S
b1000 (
b1000 V
1A
b0 J
b0 m
b0 I
b0 [
b1000 ^
b1000 b
b1000 p
b1000 t
b1000 ~
b1000 P"
0B
b11100 &"
b11000 U
b11000 ("
b11000 E"
b110001100000011010110011 Q
b110001100000011010110011 H"
b10100 %"
b10100 G"
b1100 M
b1100 ,"
b1100 @"
b1000 G
b1000 C"
b0 H
b0 A"
b10 -
b10 ="
b1000 X
b1000 ?"
b101 q
b101 u
b101 D"
1W
b0 .
b0 <"
1N
1."
b110 :
b110 2"
b1100 ;
b1100 ]
b1100 g
b1100 o
b1100 y
b1100 /"
b1100 I"
1E
b1011 D
b1011 N"
b1011 O"
b0 ""
b0 M"
b1000 #"
b1000 L"
0!"
0C
b1000 #
1!
#400
0!
#425
b1000 *
b1000 \
b1000 k
1|
1j
b1000 Y
b1000 n
b1000 }
b1000 *"
b10000 +
b10000 )"
b10 2
b10 3"
18
b1100 ^
b1100 b
b1100 p
b1100 t
b1100 ~
b1100 P"
1B
b1000 x
b1000 {
b1000 f
b1000 i
b1010 9
b1010 J"
b10 J
b10 m
b10 I
b10 [
b0 s
b0 z
b1000 (
b1000 V
1O
01
0P
b1100 #"
b1100 L"
1C
b1100 F
b1100 1"
b1100 K"
b101 :
b101 2"
b1000 ;
b1000 ]
b1000 g
b1000 o
b1000 y
b1000 /"
b1000 I"
1=
10"
b1101 M
b1101 ,"
b1101 @"
b1100 G
b1100 C"
b1100 H
b1100 A"
b0 -
b0 ="
b0 X
b0 ?"
b0 q
b0 u
b0 D"
0W
0N
0."
0+"
b1001 #
b11 '
1!
#450
0!
#475
b1010 (
b1010 V
b10100 +
b10100 )"
b1010 s
b1010 z
b1010 a
b1010 h
13
b0 2
b0 3"
15
16
b1010 Y
b1010 n
b1010 }
b1010 *"
b1010 *
b1010 \
b1010 k
b0 ?
b0 7"
b0 T"
b1010 >
b1010 5"
b1010 S"
1r
1w
0|
1`
1e
0j
b100000 $"
b100000 '"
b111001110000011110110011 T
b111001110000011110110011 F"
b0 L
b1 0
b0 Q"
b10 ;"
b0 8"
b1110 9"
b1100 R
b1100 4"
b1100 S
b0 x
b0 {
b0 f
b0 i
b0 9
b0 J"
0A
b1 J
b1 m
b1 I
b1 [
b1010 ^
b1010 b
b1010 p
b1010 t
b1010 ~
b1010 P"
b100000 &"
b11100 U
b11100 ("
b11100 E"
b110000000010011100000011 Q
b110000000010011100000011 H"
b110000 %"
b11000 G"
b10 .
b10 <"
1+"
b1101 F
b1101 1"
b1101 K"
b1000 :
b1000 2"
b10000 ;
b10000 ]
b10000 g
b10000 o
b10000 y
b10000 /"
b10000 I"
0=
00"
0E
b1100 D
b1100 N"
b1100 O"
b1010 ""
b1010 M"
b1000 #"
b1000 L"
1!"
b1010 #
1!
#500
0!
#525
b0 *
b0 \
b0 k
b10100 x
b10100 {
b10100 f
b10100 i
b0 a
b0 h
b0 >
b0 5"
b0 S"
0r
0w
0`
0e
b1100 +
b1100 )"
03
05
06
08
b10000 ^
b10000 b
b10000 p
b10000 t
b10000 ~
b10000 P"
0B
1A
b0 J
b0 m
b0 I
b0 [
b1100 (
b1100 V
0O
11
1P
b1110 L
b1110 K
b11001 0
b1110 Q"
b1110 R"
b0 ;"
b1110 8"
b1110 6"
b1111 9"
b0 R
b0 4"
b0 S
b100100 $"
b100100 '"
b1110011000000100000110011 T
b1110011000000100000110011 F"
b1101 D
b1101 N"
b1101 O"
b0 ""
b0 M"
b10000 #"
b10000 L"
0!"
0C
b1010 :
b1010 2"
b10100 ;
b10100 ]
b10100 g
b10100 o
b10100 y
b10100 /"
b10100 I"
1E
b1110 M
b1110 ,"
b1110 @"
b0 H
b0 A"
b10 -
b10 ="
b1100 X
b1100 ?"
b1010 q
b1010 u
b1010 D"
1W
b0 .
b0 <"
1N
1."
b111001110000011110110011 Q
b111001110000011110110011 H"
b11100 %"
b11100 G"
b100100 &"
b100000 U
b100000 ("
b100000 E"
b1011 #
1!
#550
0!
#575
b1100 *
b1100 \
b1100 k
b1100 Y
b1100 n
b1100 }
b1100 *"
b11000 +
b11000 )"
b10 2
b10 3"
18
1|
1j
b10010 9
b10010 J"
b0 s
b0 z
b1100 (
b1100 V
1O
01
0P
b10 J
b10 m
b10 I
b10 [
b1100 x
b1100 {
b1100 f
b1100 i
b10100 ^
b10100 b
b10100 p
b10100 t
b10100 ~
b10100 P"
1B
b1111 M
b1111 ,"
b1111 @"
b1110 G
b1110 C"
b1110 H
b1110 A"
b0 -
b0 ="
b0 X
b0 ?"
b0 q
b0 u
b0 D"
0W
0N
0."
0+"
b1110 F
b1110 1"
b1110 K"
b1100 ;
b1100 ]
b1100 g
b1100 o
b1100 y
b1100 /"
b1100 I"
1=
10"
b10100 #"
b10100 L"
1C
b1100 #
b100 '
1!
#600
0!
#625
b10010 s
b10010 z
b10010 a
b10010 h
b10010 (
b10010 V
b100100 +
b100100 )"
1r
1w
0|
1`
1e
0j
b10010 Y
b10010 n
b10010 }
b10010 *"
b10010 *
b10010 \
b10010 k
b11111111111111111111111111101000 ?
b11111111111111111111111111101000 7"
b11111111111111111111111111101000 T"
b111000 >
b111000 5"
b111000 S"
b10010 ^
b10010 b
b10010 p
b10010 t
b10010 ~
b10010 P"
b1 J
b1 m
b1 I
b1 [
b0 x
b0 {
b0 f
b0 i
b0 9
b0 J"
0A
b11000 L
b11100 K
b11000 Q"
b11100 R"
b11000 8"
b11100 6"
b10000 9"
b101000 $"
b101000 '"
b1110111001000100010110011 T
b1110111001000100010110011 F"
b1110 D
b1110 N"
b1110 O"
b10010 ""
b10010 M"
b1100 #"
b1100 L"
1!"
b1111 F
b1111 1"
b1111 K"
b1100 :
b1100 2"
b11000 ;
b11000 ]
b11000 g
b11000 o
b11000 y
b11000 /"
b11000 I"
0=
00"
0E
b10 .
b10 <"
1+"
b1110011000000100000110011 Q
b1110011000000100000110011 H"
b100000 %"
b100000 G"
b101000 &"
b100100 U
b100100 ("
b100100 E"
b1101 #
1!
#650
0!
#675
b111000 (
b111000 V
b100000 +
b100000 )"
b100100 x
b100100 {
b100100 f
b100100 i
b111000 Y
b111000 n
b111000 }
b111000 *"
b11111111111111111111111111101000 *
b11111111111111111111111111101000 \
b11111111111111111111111111101000 k
b11111111111111111111111111100111 ?
b11111111111111111111111111100111 7"
b11111111111111111111111111100111 T"
b111010 >
b111010 5"
b111010 S"
0r
0w
0`
0e
b111000 s
b111000 z
b11111111111111111111111111101000 a
b11111111111111111111111111101000 h
b101100 $"
b101100 '"
b1111011010000100100110011 T
b1111011010000100100110011 F"
b11001 L
b11101 K
b11001 Q"
b11101 R"
b11001 8"
b11101 6"
b10001 9"
1A
b0 J
b0 m
b0 I
b0 [
b11000 ^
b11000 b
b11000 p
b11000 t
b11000 ~
b11000 P"
0B
b101100 &"
b101000 U
b101000 ("
b101000 E"
b1110111001000100010110011 Q
b1110111001000100010110011 H"
b100100 %"
b100100 G"
b10000 M
b10000 ,"
b10000 @"
b11100 G
b11100 C"
b11000 H
b11000 A"
b111000 q
b111000 u
b111000 D"
b11111111111111111111111111101000 _
b11111111111111111111111111101000 c
b11111111111111111111111111101000 B"
b10010 :
b10010 2"
b100100 ;
b100100 ]
b100100 g
b100100 o
b100100 y
b100100 /"
b100100 I"
1E
b1111 D
b1111 N"
b1111 O"
b0 ""
b0 M"
b11000 #"
b11000 L"
0!"
0C
b1110 #
1!
#700
0!
#725
b111010 (
b111010 V
b100001 +
b100001 )"
b111010 Y
b111010 n
b111010 }
b111010 *"
b11111111111111111111111111100111 *
b11111111111111111111111111100111 \
b11111111111111111111111111100111 k
b11111111111111111111111111100110 ?
b11111111111111111111111111100110 7"
b11111111111111111111111111100110 T"
b111100 >
b111100 5"
b111100 S"
b100100 ^
b100100 b
b100100 p
b100100 t
b100100 ~
b100100 P"
1B
b100000 x
b100000 {
b100000 f
b100000 i
b111010 s
b111010 z
b11111111111111111111111111100111 a
b11111111111111111111111111100111 h
b11010 L
b11110 K
b11010 Q"
b11110 R"
b11010 8"
b11110 6"
b10010 9"
b110000 $"
b110000 '"
b1111111011000100110110011 T
b1111111011000100110110011 F"
b100100 #"
b100100 L"
1C
b10000 F
b10000 1"
b10000 K"
b111000 :
b111000 2"
b100000 ;
b100000 ]
b100000 g
b100000 o
b100000 y
b100000 /"
b100000 I"
b10001 M
b10001 ,"
b10001 @"
b11101 G
b11101 C"
b11001 H
b11001 A"
b111010 q
b111010 u
b111010 D"
b11111111111111111111111111100111 _
b11111111111111111111111111100111 c
b11111111111111111111111111100111 B"
b1111011010000100100110011 Q
b1111011010000100100110011 H"
b101000 %"
b101000 G"
b110000 &"
b101100 U
b101100 ("
b101100 E"
b1111 #
1!
#750
0!
#775
b111100 (
b111100 V
b100010 +
b100010 )"
b11111111111111111111111111100101 ?
b11111111111111111111111111100101 7"
b11111111111111111111111111100101 T"
b111110 >
b111110 5"
b111110 S"
b111100 Y
b111100 n
b111100 }
b111100 *"
b11111111111111111111111111100110 *
b11111111111111111111111111100110 \
b11111111111111111111111111100110 k
b110100 $"
b110100 '"
b10000010000011 T
b10000010000011 F"
b11011 L
b11111 K
b11011 Q"
b11111 R"
b11011 8"
b11111 6"
b10011 9"
b111100 s
b111100 z
b11111111111111111111111111100110 a
b11111111111111111111111111100110 h
b100001 x
b100001 {
b100001 f
b100001 i
b100000 ^
b100000 b
b100000 p
b100000 t
b100000 ~
b100000 P"
b110100 &"
b110000 U
b110000 ("
b110000 E"
b1111111011000100110110011 Q
b1111111011000100110110011 H"
b101100 %"
b101100 G"
b10010 M
b10010 ,"
b10010 @"
b11110 G
b11110 C"
b11010 H
b11010 A"
b111100 q
b111100 u
b111100 D"
b11111111111111111111111111100110 _
b11111111111111111111111111100110 c
b11111111111111111111111111100110 B"
b10001 F
b10001 1"
b10001 K"
b111010 :
b111010 2"
b100001 ;
b100001 ]
b100001 g
b100001 o
b100001 y
b100001 /"
b100001 I"
b10000 D
b10000 N"
b10000 O"
b100000 #"
b100000 L"
b10000 #
1!
#800
0!
#825
b111110 (
b111110 V
b100011 +
b100011 )"
b111110 Y
b111110 n
b111110 }
b111110 *"
b11111111111111111111111111100101 *
b11111111111111111111111111100101 \
b11111111111111111111111111100101 k
13
b0 2
b0 3"
15
16
b0 ?
b0 7"
b0 T"
b0 >
b0 5"
b0 S"
b100001 ^
b100001 b
b100001 p
b100001 t
b100001 ~
b100001 P"
b100010 x
b100010 {
b100010 f
b100010 i
b111110 s
b111110 z
b11111111111111111111111111100101 a
b11111111111111111111111111100101 h
b0 L
b0 K
b1 0
b0 Q"
b0 R"
b10 ;"
b0 8"
b0 6"
b1 9"
b111000 $"
b111000 '"
b111110011100000000000010010011 T
b111110011100000000000010010011 F"
b10001 D
b10001 N"
b10001 O"
b100001 #"
b100001 L"
b10010 F
b10010 1"
b10010 K"
b111100 :
b111100 2"
b100010 ;
b100010 ]
b100010 g
b100010 o
b100010 y
b100010 /"
b100010 I"
b10011 M
b10011 ,"
b10011 @"
b11111 G
b11111 C"
b11011 H
b11011 A"
b111110 q
b111110 u
b111110 D"
b11111111111111111111111111100101 _
b11111111111111111111111111100101 c
b11111111111111111111111111100101 B"
b10000010000011 Q
b10000010000011 H"
b110000 %"
b110000 G"
b111000 &"
b110100 U
b110100 ("
b110100 E"
b10001 #
1!
#850
0!
#875
05
06
b0 Y
b0 n
b0 }
b0 *"
b0 *
b0 \
b0 k
b0 +
b0 )"
b111100 $"
b111100 '"
b10000100000011 T
b10000100000011 F"
b111 K
b1001 0
b111 R"
b11111 :"
b0 ;"
b111 6"
b1111100111 R
b1111100111 4"
b1111100111 S
b0 s
b0 z
b0 a
b0 h
b0 (
b0 V
b100011 x
b100011 {
b100011 f
b100011 i
b100010 ^
b100010 b
b100010 p
b100010 t
b100010 ~
b100010 P"
b111100 &"
b111000 U
b111000 ("
b111000 E"
b111110011100000000000010010011 Q
b111110011100000000000010010011 H"
b100000000010 %"
b110100 G"
b1 M
b1 ,"
b1 @"
b0 G
b0 C"
b0 H
b0 A"
b10 -
b10 ="
b0 q
b0 u
b0 D"
b0 _
b0 c
b0 B"
1W
b0 .
b0 <"
1N
1."
b10011 F
b10011 1"
b10011 K"
b111110 :
b111110 2"
b100011 ;
b100011 ]
b100011 g
b100011 o
b100011 y
b100011 /"
b100011 I"
b10010 D
b10010 N"
b10010 O"
b100010 #"
b100010 L"
b10010 #
1!
#900
0!
