Lab2/log/waveform_2.vcd
$date
	Sun Dec 29 04:03:05 2024
$end
$version
	Icarus Verilog
$end
$timescale
	1s
$end
$scope module TestBench $end
$var reg 1 ! Clk $end
$var reg 1 " Reset $end
$var integer 32 # counter [31:0] $end
$var integer 32 $ flush [31:0] $end
$var integer 32 % i [31:0] $end
$var integer 32 & outfile [31:0] $end
$var integer 32 ' stall [31:0] $end
$scope module CPU $end
$var wire 1 ! clk_i $end
$var wire 1 " rst_i $end
$scope module ALU $end
$var wire 32 ( b_i [31:0] $end
$var wire 4 ) aluctr_i [3:0] $end
$var wire 32 * a_i [31:0] $end
$var reg 32 + result_o [31:0] $end
$upscope $end
$scope module ALU_Control $end
$var wire 7 , funct7_i [6:0] $end
$var wire 3 - funct3_i [2:0] $end
$var wire 2 . aluop_i [1:0] $end
$var reg 4 / aluctr_o [3:0] $end
$upscope $end
$scope module Control $end
$var wire 6 0 part_opcode_i [5:0] $end
$var wire 1 1 no_op_i $end
$var reg 2 2 aluop_o [1:0] $end
$var reg 1 3 alusrc_o $end
$var reg 1 4 branch_o $end
$var reg 1 5 memread_o $end
$var reg 1 6 memtoreg_o $end
$var reg 1 7 memwrite_o $end
$var reg 1 8 regwrite_o $end
$upscope $end
$scope module Data_Memory $end
$var wire 1 ! clk_i $end
$var wire 32 9 data_o [31:0] $end
$var wire 32 : data_i [31:0] $end
$var wire 32 ; addr_i [31:0] $end
$var wire 1 < MemWrite_i $end
$var wire 1 = MemRead_i $end
$upscope $end
$scope module Flush $end
$var wire 1 4 branch_i $end
$var wire 1 " rst_i $end
$var wire 32 > rs2_data_i [31:0] $end
$var wire 32 ? rs1_data_i [31:0] $end
$var reg 1 @ flush_o $end
$upscope $end
$scope module Forwarding $end
$var wire 1 A mem_valid_regwrite $end
$var wire 1 B wb_valid_regwrite $end
$var wire 1 C wb_regwrite_i $end
$var wire 5 D wb_rd_addr_i [4:0] $end
$var wire 1 E mem_regwrite_i $end
$var wire 5 F mem_rd_addr_i [4:0] $end
$var wire 5 G ex_rs2_addr_i [4:0] $end
$var wire 5 H ex_rs1_addr_i [4:0] $end
$var reg 2 I forward_a_o [1:0] $end
$var reg 2 J forward_b_o [1:0] $end
$upscope $end
$scope module Hazard_Detection $end
$var wire 5 K rs2_addr_i [4:0] $end
$var wire 5 L rs1_addr_i [4:0] $end
$var wire 5 M ex_rd_addr_i [4:0] $end
$var wire 1 N ex_memread_i $end
$var reg 1 1 no_op_o $end
$var reg 1 O pcwrite_o $end
$var reg 1 P stall_o $end
$upscope $end
$scope module Imm_Gen $end
$var wire 32 Q instr_i [31:0] $end
$var wire 32 R immext_o [31:0] $end
$var reg 12 S imm [11:0] $end
$upscope $end
$scope module Instruction_Memory $end
$var wire 32 T instr_o [31:0] $end
$var wire 32 U addr_i [31:0] $end
$upscope $end
$scope module MUX_ALUsrc $end
$var wire 32 V y_o [31:0] $end
$var wire 1 W sel_i $end
$var wire 32 X b_i [31:0] $end
$var wire 32 Y a_i [31:0] $end
$upscope $end
$scope module MUX_ForwardA $end
$var wire 32 Z d_i [31:0] $end
$var wire 2 [ sel_i [1:0] $end
$var wire 32 \ y_o [31:0] $end
$var wire 32 ] c_i [31:0] $end
$var wire 32 ^ b_i [31:0] $end
$var wire 32 _ a_i [31:0] $end
$scope module MUX1 $end
$var wire 1 ` sel_i $end
$var wire 32 a y_o [31:0] $end
$var wire 32 b b_i [31:0] $end
$var wire 32 c a_i [31:0] $end
$upscope $end
$scope module MUX2 $end
$var wire 32 d b_i [31:0] $end
$var wire 1 e sel_i $end
$var wire 32 f y_o [31:0] $end
$var wire 32 g a_i [31:0] $end
$upscope $end
$scope module MUXFinal $end
$var wire 32 h a_i [31:0] $end
$var wire 32 i b_i [31:0] $end
$var wire 1 j sel_i $end
$var wire 32 k y_o [31:0] $end
$upscope $end
$upscope $end
$scope module MUX_ForwardB $end
$var wire 32 l d_i [31:0] $end
$var wire 2 m sel_i [1:0] $end
$var wire 32 n y_o [31:0] $end
$var wire 32 o c_i [31:0] $end
$var wire 32 p b_i [31:0] $end
$var wire 32 q a_i [31:0] $end
$scope module MUX1 $end
$var wire 1 r sel_i $end
$var wire 32 s y_o [31:0] $end
$var wire 32 t b_i [31:0] $end
$var wire 32 u a_i [31:0] $end
$upscope $end
$scope module MUX2 $end
$var wire 32 v b_i [31:0] $end
$var wire 1 w sel_i $end
$var wire 32 x y_o [31:0] $end
$var wire 32 y a_i [31:0] $end
$upscope $end
$scope module MUXFinal $end
$var wire 32 z a_i [31:0] $end
$var wire 32 { b_i [31:0] $end
$var wire 1 | sel_i $end
$var wire 32 } y_o [31:0] $end
$upscope $end
$upscope $end
$scope module MUX_MemtoReg $end
$var wire 32 ~ y_o [31:0] $end
$var wire 1 !" sel_i $end
$var wire 32 "" b_i [31:0] $end
$var wire 32 #" a_i [31:0] $end
$upscope $end
$scope module MUX_PCSrc $end
$var wire 1 @ sel_i $end
$var wire 32 $" y_o [31:0] $end
$var wire 32 %" b_i [31:0] $end
$var wire 32 &" a_i [31:0] $end
$upscope $end
$scope module PC $end
$var wire 1 O PCWrite_i $end
$var wire 1 ! clk_i $end
$var wire 32 '" pc_i [31:0] $end
$var wire 1 " rst_i $end
$var reg 32 (" pc_o [31:0] $end
$upscope $end
$scope module Reg_EXMEM $end
$var wire 32 )" alu_result_i [31:0] $end
$var wire 1 ! clk_i $end
$var wire 32 *" rs2_data_i [31:0] $end
$var wire 1 " rst_i $end
$var wire 1 +" regwrite_i $end
$var wire 5 ," rd_addr_i [4:0] $end
$var wire 1 -" memwrite_i $end
$var wire 1 ." memtoreg_i $end
$var wire 1 N memread_i $end
$var reg 32 /" alu_result_o [31:0] $end
$var reg 1 = memread_o $end
$var reg 1 0" memtoreg_o $end
$var reg 1 < memwrite_o $end
$var reg 5 1" rd_addr_o [4:0] $end
$var reg 1 E regwrite_o $end
$var reg 32 2" rs2_data_o [31:0] $end
$upscope $end
$scope module Reg_IDEX $end
$var wire 2 3" aluop_i [1:0] $end
$var wire 1 3 alusrc_i $end
$var wire 1 ! clk_i $end
$var wire 32 4" immext_i [31:0] $end
$var wire 1 5 memread_i $end
$var wire 1 6 memtoreg_i $end
$var wire 1 7 memwrite_i $end
$var wire 1 8 regwrite_i $end
$var wire 1 " rst_i $end
$var wire 32 5" rs2_data_i [31:0] $end
$var wire 5 6" rs2_addr_i [4:0] $end
$var wire 32 7" rs1_data_i [31:0] $end
$var wire 5 8" rs1_addr_i [4:0] $end
$var wire 5 9" rd_addr_i [4:0] $end
$var wire 7 :" funct7_i [6:0] $end
$var wire 3 ;" funct3_i [2:0] $end
$var reg 2 <" aluop_o [1:0] $end
$var reg 1 W alusrc_o $end
$var reg 3 =" funct3_o [2:0] $end
$var reg 7 >" funct7_o [6:0] $end
$var reg 32 ?" immext_o [31:0] $end
$var reg 1 N memread_o $end
$var reg 1 ." memtoreg_o $end
$var reg 1 -" memwrite_o $end
$var reg 5 @" rd_addr_o [4:0] $end
$var reg 1 +" regwrite_o $end
$var reg 5 A" rs1_addr_o [4:0] $end
$var reg 32 B" rs1_data_o [31:0] $end
$var reg 5 C" rs2_addr_o [4:0] $end
$var reg 32 D" rs2_data_o [31:0] $end
$upscope $end
$scope module Reg_IFID $end
$var wire 1 ! clk_i $end
$var wire 1 @ flush_i $end
$var wire 32 E" instr_addr_i [31:0] $end
$var wire 32 F" instr_i [31:0] $end
$var wire 1 " rst_i $end
$var wire 1 P stall_i $end
$var reg 32 G" instr_addr_o [31:0] $end
$var reg 32 H" instr_o [31:0] $end
$upscope $end
$scope module Reg_MEMWB $end
$var wire 32 I" alu_result_i [31:0] $end
$var wire 1 ! clk_i $end
$var wire 32 J" memdata_i [31:0] $end
$var wire 1 0" memtoreg_i $end
$var wire 5 K" rd_addr_i [4:0] $end
$var wire 1 E regwrite_i $end
$var wire 1 " rst_i $end
$var reg 32 L" alu_result_o [31:0] $end
$var reg 32 M" memdata_o [31:0] $end
$var reg 1 !" memtoreg_o $end
$var reg 5 N" rd_addr_o [4:0] $end
$var reg 1 C regwrite_o $end
$upscope $end
$scope module Registers $end
$var wire 5 O" RDaddr_i [4:0] $end
$var wire 32 P" RDdata_i [31:0] $end
$var wire 5 Q" RS1addr_i [4:0] $end
$var wire 5 R" RS2addr_i [4:0] $end
$var wire 1 C RegWrite_i $end
$var wire 1 ! clk_i $end
$var wire 1 " rst_i $end
$var wire 32 S" RS2data_o [31:0] $end
$var wire 32 T" RS1data_o [31:0] $end
$var integer 32 U" i [31:0] $end
$upscope $end
$upscope $end
$upscope $end
$enddefinitions $end
#0
$dumpvars
bx U"
bx T"
bx S"
bx R"
bx Q"
bx P"
bx O"
bx N"
bx M"
bx L"
bx K"
bx J"
bx I"
bx H"
bx G"
bx F"
bx E"
bx D"
bx C"
bx B"
bx A"
bx @"
bx ?"
bx >"
bx ="
bx <"
bx ;"
bx :"
bx 9"
bx 8"
bx 7"
bx 6"
bx 5"
bx 4"
bx 3"
bx 2"
bx 1"
x0"
bx /"
x."
x-"
bx ,"
x+"
bx *"
bx )"
bx ("
bx '"
bx &"
bx %"
bx $"
bx #"
bx ""
x!"
bx ~
bx }
x|
bx {
bx z
bx y
bx x
xw
b0 v
bx u
bx t
bx s
xr
bx q
bx p
bx o
bx n
bx m
b0 l
bx k
xj
bx i
bx h
bx g
bx f
xe
b0 d
bx c
bx b
bx a
x`
bx _
bx ^
bx ]
bx \
bx [
b0 Z
bx Y
bx X
xW
bx V
bx U
bx T
bx S
bx R
bx Q
xP
xO
xN
bx M
bx L
bx K
bx J
bx I
bx H
bx G
bx F
xE
bx D
xC
xB
xA
x@
bx ?
bx >
x=
x<
bx ;
bx :
bx 9
x8
x7
x6
x5
x4
x3
bx 2
x1
bx 0
bx /
bx .
bx -
bx ,
bx +
bx *
bx )
bx (
b0 '
b11 &
b100000 %
b0 $
b0 #
1"
0!
$end
#6
b0 +
b0 )"
b0 %"
b0 (
b0 V
04
03
b0 2
b0 3"
07
05
06
08
b0 Y
b0 n
b0 }
b0 *"
b0 *
b0 \
b0 k
0r
0w
0|
0`
0e
0j
b0 ?
b0 7"
b0 T"
b0 >
b0 5"
b0 S"
b100 $"
b100 '"
b1100010000000100000110011 T
b1100010000000100000110011 F"
b0 L
b0 K
b0 0
b0 Q"
b0 R"
b0 :"
b0 ;"
b0 8"
b0 6"
b0 9"
b0 R
b0 4"
b0 S
b0 s
b0 z
b0 a
b0 h
b0 )
b0 /
1O
01
0P
b0 x
b0 {
b0 f
b0 i
b0 9
b0 J"
0A
b0 J
b0 m
b0 I
b0 [
b0 ^
b0 b
b0 p
b0 t
b0 ~
b0 P"
0B
b100 &"
b0 U
b0 ("
b0 E"
b0 Q
b0 H"
b0 G"
b0 M
b0 ,"
b0 @"
b0 G
b0 C"
b0 H
b0 A"
b0 -
b0 ="
b0 ,
b0 >"
b0 X
b0 ?"
b0 q
b0 u
b0 D"
b0 _
b0 c
b0 B"
0W
b0 .
b0 <"
0-"
0N
0."
0+"
b0 F
b0 1"
b0 K"
b0 :
b0 2"
b0 ;
b0 ]
b0 g
b0 o
b0 y
b0 /"
b0 I"
0<
0=
00"
0E
b0 D
b0 N"
b0 O"
b0 ""
b0 M"
b0 #"
b0 L"
0!"
0C
0@
b100000 U"
0"
#12
1"
#25
b10 2
b10 3"
18
b11111111111111111111111111101000 >
b11111111111111111111111111101000 5"
b11111111111111111111111111101000 S"
b10000 L
b11000 K
b11001 0
b10000 Q"
b11000 R"
b10000 8"
b11000 6"
b10000 9"
b1000 $"
b1000 '"
b1100110000000100000110011 T
b1100110000000100000110011 F"
b1100010000000100000110011 Q
b1100010000000100000110011 H"
b1000 &"
b100 U
b100 ("
b100 E"
b1 #
1!
#50
0!
#75
b11111111111111111111111111101000 +
b11111111111111111111111111101000 )"
b11111111111111111111111111101000 (
b11111111111111111111111111101000 V
b11111111111111111111111111100111 >
b11111111111111111111111111100111 5"
b11111111111111111111111111100111 S"
b11111111111111111111111111101000 Y
b11111111111111111111111111101000 n
b11111111111111111111111111101000 }
b11111111111111111111111111101000 *"
b1100 $"
b1100 '"
b1101010000000100000110011 T
b1101010000000100000110011 F"
b11001 K
b11001 R"
b11001 6"
b11111111111111111111111111101000 s
b11111111111111111111111111101000 z
b1100 &"
b1000 U
b1000 ("
b1000 E"
b1100110000000100000110011 Q
b1100110000000100000110011 H"
b100 %"
b100 G"
b10000 M
b10000 ,"
b10000 @"
b11000 G
b11000 C"
b10000 H
b10000 A"
b11111111111111111111111111101000 q
b11111111111111111111111111101000 u
b11111111111111111111111111101000 D"
b10 .
b10 <"
1+"
b10 #
1!
#100
0!
#125
b11111111111111111111111111101000 *
b11111111111111111111111111101000 \
b11111111111111111111111111101000 k
b11111111111111111111111111001111 +
b11111111111111111111111111001111 )"
1j
b11111111111111111111111111100111 (
b11111111111111111111111111100111 V
b10 I
b10 [
b11111111111111111111111111100111 Y
b11111111111111111111111111100111 n
b11111111111111111111111111100111 }
b11111111111111111111111111100111 *"
b11111111111111111111111111100110 >
b11111111111111111111111111100110 5"
b11111111111111111111111111100110 S"
b11111111111111111111111111101000 x
b11111111111111111111111111101000 {
b11111111111111111111111111101000 f
b11111111111111111111111111101000 i
1A
b11111111111111111111111111100111 s
b11111111111111111111111111100111 z
b11010 K
b11010 R"
b11010 6"
b10000 $"
b10000 '"
b1110010000000100000110011 T
b1110010000000100000110011 F"
b10000 F
b10000 1"
b10000 K"
b11111111111111111111111111101000 :
b11111111111111111111111111101000 2"
b11111111111111111111111111101000 ;
b11111111111111111111111111101000 ]
b11111111111111111111111111101000 g
b11111111111111111111111111101000 o
b11111111111111111111111111101000 y
b11111111111111111111111111101000 /"
b11111111111111111111111111101000 I"
1E
b11001 G
b11001 C"
b11111111111111111111111111100111 q
b11111111111111111111111111100111 u
b11111111111111111111111111100111 D"
b1101010000000100000110011 Q
b1101010000000100000110011 H"
b1000 %"
b1000 G"
b10000 &"
b1100 U
b1100 ("
b1100 E"
b11 #
1!
#150
0!
#175
b11111111111111111111111111100110 (
b11111111111111111111111111100110 V
b11111111111111111111111110110101 +
b11111111111111111111111110110101 )"
b111000 >
b111000 5"
b111000 S"
b11111111111111111111111111100110 Y
b11111111111111111111111111100110 n
b11111111111111111111111111100110 }
b11111111111111111111111111100110 *"
b11111111111111111111111111001111 *
b11111111111111111111111111001111 \
b11111111111111111111111111001111 k
b11111111111111111111111111101000 ?
b11111111111111111111111111101000 7"
b11111111111111111111111111101000 T"
b10100 $"
b10100 '"
b1000000000010110000100011 T
b1000000000010110000100011 F"
b11100 K
b11100 R"
b11100 6"
b11111111111111111111111111100110 s
b11111111111111111111111111100110 z
b11111111111111111111111111001111 x
b11111111111111111111111111001111 {
b11111111111111111111111111001111 f
b11111111111111111111111111001111 i
b11111111111111111111111111101000 ^
b11111111111111111111111111101000 b
b11111111111111111111111111101000 p
b11111111111111111111111111101000 t
b11111111111111111111111111101000 ~
b11111111111111111111111111101000 P"
1B
b10100 &"
b10000 U
b10000 ("
b10000 E"
b1110010000000100000110011 Q
b1110010000000100000110011 H"
b1100 %"
b1100 G"
b11010 G
b11010 C"
b11111111111111111111111111100110 q
b11111111111111111111111111100110 u
b11111111111111111111111111100110 D"
b11111111111111111111111111100111 :
b11111111111111111111111111100111 2"
b11111111111111111111111111001111 ;
b11111111111111111111111111001111 ]
b11111111111111111111111111001111 g
b11111111111111111111111111001111 o
b11111111111111111111111111001111 y
b11111111111111111111111111001111 /"
b11111111111111111111111111001111 I"
b10000 D
b10000 N"
b10000 O"
b11111111111111111111111111101000 #"
b11111111111111111111111111101000 L"
1C
b100 #
1!
#200
0!
#225
b11111111111111111111111111101101 +
b11111111111111111111111111101101 )"
b111000 (
b111000 V
b0 ?
b0 7"
b0 T"
b11111111111111111111111110110101 *
b11111111111111111111111110110101 \
b11111111111111111111111110110101 k
b111000 Y
b111000 n
b111000 }
b111000 *"
13
b0 2
b0 3"
17
08
b11111111111111111111111111001111 >
b11111111111111111111111111001111 5"
b11111111111111111111111111001111 S"
b11111111111111111111111111001111 ^
b11111111111111111111111111001111 b
b11111111111111111111111111001111 p
b11111111111111111111111111001111 t
b11111111111111111111111111001111 ~
b11111111111111111111111111001111 P"
b11111111111111111111111110110101 x
b11111111111111111111111110110101 {
b11111111111111111111111110110101 f
b11111111111111111111111110110101 i
b111000 s
b111000 z
b11111111111111111111111111101000 a
b11111111111111111111111111101000 h
b0 L
b10000 K
b10001 0
b0 Q"
b10000 R"
b10 ;"
b0 8"
b10000 6"
b11000 9"
b11000 R
b11000 4"
b11000 S
b11000 $"
b11000 '"
b1000001111011111000000010110011 T
b1000001111011111000000010110011 F"
b11111111111111111111111111001111 #"
b11111111111111111111111111001111 L"
b11111111111111111111111111100110 :
b11111111111111111111111111100110 2"
b11111111111111111111111110110101 ;
b11111111111111111111111110110101 ]
b11111111111111111111111110110101 g
b11111111111111111111111110110101 o
b11111111111111111111111110110101 y
b11111111111111111111111110110101 /"
b11111111111111111111111110110101 I"
b11100 G
b11100 C"
b111000 q
b111000 u
b111000 D"
b11111111111111111111111111101000 _
b11111111111111111111111111101000 c
b11111111111111111111111111101000 B"
b1000000000010110000100011 Q
b1000000000010110000100011 H"
b1000000 %"
b10000 G"
b11000 &"
b10100 U
b10100 ("
b10100 E"
b101 #
1!
#250
0!
#275
03
b10 2
b10 3"
07
18
b111110 ?
b111110 7"
b111110 T"
1|
0j
b11111111111111111111111111101101 Y
b11111111111111111111111111101101 n
b11111111111111111111111111101101 }
b11111111111111111111111111101101 *"
b11000 +
b11000 )"
b0 *
b0 \
b0 k
b111100 >
b111100 5"
b111100 S"
b11100 $"
b11100 '"
b1111000001000000100110011 T
b1111000001000000100110011 F"
b11111 L
b11110 K
b11001 0
b11111 Q"
b11110 R"
b100000 :"
b0 ;"
b11111 8"
b11110 6"
b1 9"
b0 R
b0 4"
b0 S
b10 J
b10 m
b0 I
b0 [
b11111111111111111111111111001111 s
b11111111111111111111111111001111 z
b0 a
b0 h
b11000 (
b11000 V
b11111111111111111111111111101101 x
b11111111111111111111111111101101 {
b11111111111111111111111111101101 f
b11111111111111111111111111101101 i
b11111111111111111111111110110101 ^
b11111111111111111111111110110101 b
b11111111111111111111111110110101 p
b11111111111111111111111110110101 t
b11111111111111111111111110110101 ~
b11111111111111111111111110110101 P"
b11100 &"
b11000 U
b11000 ("
b11000 E"
b1000001111011111000000010110011 Q
b1000001111011111000000010110011 H"
b10100 %"
b10100 G"
b11000 M
b11000 ,"
b11000 @"
b10000 G
b10000 C"
b0 H
b0 A"
b10 -
b10 ="
b11000 X
b11000 ?"
b11111111111111111111111111001111 q
b11111111111111111111111111001111 u
b11111111111111111111111111001111 D"
b0 _
b0 c
b0 B"
1W
b0 .
b0 <"
1-"
0+"
b111000 :
b111000 2"
b11111111111111111111111111101101 ;
b11111111111111111111111111101101 ]
b11111111111111111111111111101101 g
b11111111111111111111111111101101 o
b11111111111111111111111111101101 y
b11111111111111111111111111101101 /"
b11111111111111111111111111101101 I"
b11111111111111111111111110110101 #"
b11111111111111111111111110110101 L"
b110 #
1!
#300
0!
#325
b111100 Y
b111100 n
b111100 }
b111100 *"
0|
b111110 *
b111110 \
b111110 k
b10 +
b10 )"
b0 ?
b0 7"
b0 T"
b11111111111111111111111111101101 ^
b11111111111111111111111111101101 b
b11111111111111111111111111101101 p
b11111111111111111111111111101101 t
b11111111111111111111111111101101 ~
b11111111111111111111111111101101 P"
b11000 x
b11000 {
b11000 f
b11000 i
0A
b0 J
b0 m
b111100 s
b111100 z
b111110 a
b111110 h
b111100 (
b111100 V
b1000 )
b1000 /
b1 L
b1 Q"
b0 :"
b1 8"
b10 9"
b100000 $"
b100000 '"
b1000000001000010101000110010011 T
b1000000001000010101000110010011 F"
b11111111111111111111111111101101 #"
b11111111111111111111111111101101 L"
b11000 F
b11000 1"
b11000 K"
b11111111111111111111111111101101 :
b11111111111111111111111111101101 2"
b11000 ;
b11000 ]
b11000 g
b11000 o
b11000 y
b11000 /"
b11000 I"
1<
0E
b1 M
b1 ,"
b1 @"
b11110 G
b11110 C"
b11111 H
b11111 A"
b0 -
b0 ="
b100000 ,
b100000 >"
b0 X
b0 ?"
b111100 q
b111100 u
b111100 D"
b111110 _
b111110 c
b111110 B"
0W
b10 .
b10 <"
0-"
1+"
b1111000001000000100110011 Q
b1111000001000000100110011 H"
b11000 %"
b11000 G"
b100000 &"
b11100 U
b11100 ("
b11100 E"
b111 #
1!
#350
0!
#375
1j
13
b0 2
b0 3"
b0 >
b0 5"
b0 S"
b111110 +
b111110 )"
b10 *
b10 \
b10 k
b10 I
b10 [
b100100 $"
b100100 '"
b1000000000011010010011 T
b1000000000011010010011 F"
b10 L
b10 K
b1001 0
b10 Q"
b10 R"
b100000 :"
b101 ;"
b10 8"
b10 6"
b11 9"
b10000000010 R
b10000000010 4"
b10000000010 S
b0 )
b0 /
b0 a
b0 h
b10 x
b10 {
b10 f
b10 i
1A
b11000 ^
b11000 b
b11000 p
b11000 t
b11000 ~
b11000 P"
0B
b100100 &"
b100000 U
b100000 ("
b100000 E"
b1000000001000010101000110010011 Q
b1000000001000010101000110010011 H"
b100000100000 %"
b11100 G"
b10 M
b10 ,"
b10 @"
b1 H
b1 A"
b0 ,
b0 >"
b0 _
b0 c
b0 B"
b1 F
b1 1"
b1 K"
b111100 :
b111100 2"
b10 ;
b10 ]
b10 g
b10 o
b10 y
b10 /"
b10 I"
0<
1E
b11000 D
b11000 N"
b11000 O"
b11000 #"
b11000 L"
0C
b1000 #
1!
#400
0!
#425
b111110 *
b111110 \
b111110 k
1|
b111110 Y
b111110 n
b111110 }
b111110 *"
b1111 +
b1111 )"
b10 ^
b10 b
b10 p
b10 t
b10 ~
b10 P"
1B
b111110 x
b111110 {
b111110 f
b111110 i
b10 J
b10 m
b0 s
b0 z
b10000000010 (
b10000000010 V
b1101 )
b1101 /
b0 L
b0 Q"
b0 :"
b0 ;"
b0 8"
b1101 9"
b10 R
b10 4"
b10 S
b101000 $"
b101000 '"
b110111110001011110110011 T
b110111110001011110110011 F"
b1 D
b1 N"
b1 O"
b10 #"
b10 L"
1C
b10 F
b10 1"
b10 K"
b111110 ;
b111110 ]
b111110 g
b111110 o
b111110 y
b111110 /"
b111110 I"
b11 M
b11 ,"
b11 @"
b10 G
b10 C"
b10 H
b10 A"
b101 -
b101 ="
b100000 ,
b100000 >"
b10000000010 X
b10000000010 ?"
b0 q
b0 u
b0 D"
1W
b0 .
b0 <"
b1000000000011010010011 Q
b1000000000011010010011 H"
b100100 %"
b100000 G"
b101000 &"
b100100 U
b100100 ("
b100100 E"
b1001 #
1!
#450
0!
#475
b111110 s
b111110 z
03
b10 2
b10 3"
b111100 ?
b111100 7"
b111100 T"
b10 +
b10 )"
b111110 Y
b111110 n
b111110 }
b111110 *"
b0 *
b0 \
b0 k
b0 >
b0 5"
b0 S"
1r
1w
0|
0j
b101100 $"
b101100 '"
b1100000010101000100011 T
b1100000010101000100011 F"
b11110 L
b1101 K
b11001 0
b11110 Q"
b1101 R"
b1 ;"
b11110 8"
b1101 6"
b1111 9"
b0 R
b0 4"
b0 S
b0 )
b0 /
b10 (
b10 V
b0 x
b0 {
b1111 f
b1111 i
b1 J
b1 m
b0 I
b0 [
b111110 ^
b111110 b
b111110 p
b111110 t
b111110 ~
b111110 P"
b101100 &"
b101000 U
b101000 ("
b101000 E"
b110111110001011110110011 Q
b110111110001011110110011 H"
b100100 %"
b100100 G"
b1101 M
b1101 ,"
b1101 @"
b0 H
b0 A"
b0 -
b0 ="
b0 ,
b0 >"
b10 X
b10 ?"
b11 F
b11 1"
b11 K"
b111110 :
b111110 2"
b1111 ;
b1111 ]
b1111 g
b1111 o
b1111 y
b1111 /"
b1111 I"
b10 D
b10 N"
b10 O"
b111110 #"
b111110 L"
b1010 #
1!
#500
0!
#525
b10 x
b10 {
b10 Y
b10 n
b10 }
b10 *"
b1111 >
b1111 5"
b1111 S"
b0 s
b0 z
0r
0w
1|
b111100 *
b111100 \
b111100 k
b11110000 +
b11110000 )"
13
b0 2
b0 3"
17
08
b0 ?
b0 7"
b0 T"
b1111 ^
b1111 b
b1111 p
b1111 t
b1111 ~
b1111 P"
b10 f
b10 i
b10 J
b10 m
b111100 a
b111100 h
b10 (
b10 V
b1 )
b1 /
b0 L
b11 K
b10001 0
b0 Q"
b11 R"
b10 ;"
b0 8"
b11 6"
b10100 9"
b10100 R
b10100 4"
b10100 S
b110000 $"
b110000 '"
b10101000000011 T
b10101000000011 F"
b11 D
b11 N"
b11 O"
b1111 #"
b1111 L"
b1101 F
b1101 1"
b1101 K"
b10 ;
b10 ]
b10 g
b10 o
b10 y
b10 /"
b10 I"
b1111 M
b1111 ,"
b1111 @"
b1101 G
b1101 C"
b11110 H
b11110 A"
b1 -
b1 ="
b0 X
b0 ?"
b111100 _
b111100 c
b111100 B"
0W
b10 .
b10 <"
b1100000010101000100011 Q
b1100000010101000100011 H"
b1010000 %"
b101000 G"
b110000 &"
b101100 U
b101100 ("
b101100 E"
b1011 #
1!
#550
0!
#575
07
15
16
18
b0 *
b0 \
b0 k
b10100 +
b10100 )"
b1111 Y
b1111 n
b1111 }
b1111 *"
0|
b0 >
b0 5"
b0 S"
b110100 $"
b110100 '"
b10000000010101010000011 T
b10000000010101010000011 F"
b0 K
b1 0
b0 R"
b0 6"
b0 R
b0 4"
b0 S
b1111 s
b1111 z
b0 a
b0 h
b10100 (
b10100 V
b0 )
b0 /
b11110000 x
b11110000 {
b11110000 f
b11110000 i
b0 J
b0 m
b10 ^
b10 b
b10 p
b10 t
b10 ~
b10 P"
b110100 &"
b110000 U
b110000 ("
b110000 E"
b10101000000011 Q
b10101000000011 H"
b101100 %"
b101100 G"
b10100 M
b10100 ,"
b10100 @"
b11 G
b11 C"
b0 H
b0 A"
b10 -
b10 ="
b10100 X
b10100 ?"
b1111 q
b1111 u
b1111 D"
b0 _
b0 c
b0 B"
1W
b0 .
b0 <"
1-"
0+"
b1111 F
b1111 1"
b1111 K"
b10 :
b10 2"
b11110000 ;
b11110000 ]
b11110000 g
b11110000 o
b11110000 y
b11110000 /"
b11110000 I"
b1101 D
b1101 N"
b1101 O"
b10 #"
b10 L"
b1100 #
1!
#600
0!
#625
b0 +
b0 )"
b0 Y
b0 n
b0 }
b0 *"
b11110000 ^
b11110000 b
b11110000 p
b11110000 t
b11110000 ~
b11110000 P"
b10100 x
b10100 {
b10100 f
b10100 i
0A
b0 (
b0 V
b0 s
b0 z
b100 K
b100 R"
b100 6"
b10101 9"
b100 R
b100 4"
b100 S
b111000 $"
b111000 '"
b100000000010101100000011 T
b100000000010101100000011 F"
b1111 D
b1111 N"
b1111 O"
b11110000 #"
b11110000 L"
b10100 F
b10100 1"
b10100 K"
b1111 :
b1111 2"
b10100 ;
b10100 ]
b10100 g
b10100 o
b10100 y
b10100 /"
b10100 I"
1<
0E
b0 G
b0 C"
b0 X
b0 ?"
b0 q
b0 u
b0 D"
0-"
1N
1."
1+"
b10000000010101010000011 Q
b10000000010101010000011 H"
b111000 %"
b110000 G"
b111000 &"
b110100 U
b110100 ("
b110100 E"
b1101 #
1!
#650
0!
#675
b100 +
b100 )"
b111100 $"
b111100 '"
b0 T
b0 F"
b1000 K
b1000 R"
b1000 6"
b10110 9"
b1000 R
b1000 4"
b1000 S
b100 (
b100 V
b0 x
b0 {
b0 f
b0 i
b101 9
b101 J"
1A
b10100 ^
b10100 b
b10100 p
b10100 t
b10100 ~
b10100 P"
0B
b111100 &"
b111000 U
b111000 ("
b111000 E"
b100000000010101100000011 Q
b100000000010101100000011 H"
b1000100 %"
b110100 G"
b10101 M
b10101 ,"
b10101 @"
b100 G
b100 C"
b100 X
b100 ?"
b0 :
b0 2"
b0 ;
b0 ]
b0 g
b0 o
b0 y
b0 /"
b0 I"
0<
1=
10"
1E
b10100 D
b10100 N"
b10100 O"
b10100 #"
b10100 L"
0C
b1110 #
1!
#700
0!
#725
b110 9
b110 J"
b1000 +
b1000 )"
03
05
06
08
b101 ^
b101 b
b101 p
b101 t
b101 ~
b101 P"
1B
b100 x
b100 {
b100 f
b100 i
b1000 (
b1000 V
b0 K
b0 0
b0 R"
b0 ;"
b0 6"
b0 9"
b0 R
b0 4"
b0 S
b1000000 $"
b1000000 '"
b101 ""
b101 M"
b0 #"
b0 L"
1!"
1C
b10101 F
b10101 1"
b10101 K"
b100 ;
b100 ]
b100 g
b100 o
b100 y
b100 /"
b100 I"
b10110 M
b10110 ,"
b10110 @"
b1000 G
b1000 C"
b1000 X
b1000 ?"
b0 Q
b0 H"
b111000 %"
b111000 G"
b1000000 &"
b111100 U
b111100 ("
b111100 E"
b1111 #
1!
#750
0!
#775
b0 +
b0 )"
b1010 9
b1010 J"
b1000100 $"
b1000100 '"
b0 (
b0 V
b1000 x
b1000 {
b1000 f
b1000 i
b110 ^
b110 b
b110 p
b110 t
b110 ~
b110 P"
b1000100 &"
b1000000 U
b1000000 ("
b1000000 E"
b111100 %"
b111100 G"
b0 M
b0 ,"
b0 @"
b0 G
b0 C"
b0 -
b0 ="
b0 X
b0 ?"
0W
0N
0."
0+"
b10110 F
b10110 1"
b10110 K"
b1000 ;
b1000 ]
b1000 g
b1000 o
b1000 y
b1000 /"
b1000 I"
b10101 D
b10101 N"
b10101 O"
b110 ""
b110 M"
b100 #"
b100 L"
b10000 #
1!
#800
0!
