Lab2/log/waveform_4.vcd
$date
	Sun Dec 29 04:03:05 2024
$end
$version
	Icarus Verilog
$end
$timescale
	1s
$end
$scope module TestBench $end
$var reg 1 ! Clk $end
$var reg 1 " Reset $end
$var integer 32 # counter [31:0] $end
$var integer 32 $ flush [31:0] $end
$var integer 32 % i [31:0] $end
$var integer 32 & outfile [31:0] $end
$var integer 32 ' stall [31:0] $end
$scope module CPU $end
$var wire 1 ! clk_i $end
$var wire 1 " rst_i $end
$scope module ALU $end
$var wire 32 ( b_i [31:0] $end
$var wire 4 ) aluctr_i [3:0] $end
$var wire 32 * a_i [31:0] $end
$var reg 32 + result_o [31:0] $end
$upscope $end
$scope module ALU_Control $end
$var wire 7 , funct7_i [6:0] $end
$var wire 3 - funct3_i [2:0] $end
$var wire 2 . aluop_i [1:0] $end
$var reg 4 / aluctr_o [3:0] $end
$upscope $end
$scope module Control $end
$var wire 6 0 part_opcode_i [5:0] $end
$var wire 1 1 no_op_i $end
$var reg 2 2 aluop_o [1:0] $end
$var reg 1 3 alusrc_o $end
$var reg 1 4 branch_o $end
$var reg 1 5 memread_o $end
$var reg 1 6 memtoreg_o $end
$var reg 1 7 memwrite_o $end
$var reg 1 8 regwrite_o $end
$upscope $end
$scope module Data_Memory $end
$var wire 1 ! clk_i $end
$var wire 32 9 data_o [31:0] $end
$var wire 32 : data_i [31:0] $end
$var wire 32 ; addr_i [31:0] $end
$var wire 1 < MemWrite_i $end
$var wire 1 = MemRead_i $end
$upscope $end
$scope module Flush $end
$var wire 1 4 branch_i $end
$var wire 1 " rst_i $end
$var wire 32 > rs2_data_i [31:0] $end
$var wire 32 ? rs1_data_i [31:0] $end
$var reg 1 @ flush_o $end
$upscope $end
$scope module Forwarding $end
$var wire 1 A mem_valid_regwrite $end
$var wire 1 B wb_valid_regwrite $end
$var wire 1 C wb_regwrite_i $end
$var wire 5 D wb_rd_addr_i [4:0] $end
$var wire 1 E mem_regwrite_i $end
$var wire 5 F mem_rd_addr_i [4:0] $end
$var wire 5 G ex_rs2_addr_i [4:0] $end
$var wire 5 H ex_rs1_addr_i [4:0] $end
$var reg 2 I forward_a_o [1:0] $end
$var reg 2 J forward_b_o [1:0] $end
$upscope $end
$scope module Hazard_Detection $end
$var wire 5 K rs2_addr_i [4:0] $end
$var wire 5 L rs1_addr_i [4:0] $end
$var wire 5 M ex_rd_addr_i [4:0] $end
$var wire 1 N ex_memread_i $end
$var reg 1 1 no_op_o $end
$var reg 1 O pcwrite_o $end
$var reg 1 P stall_o $end
$upscope $end
$scope module Imm_Gen $end
$var wire 32 Q instr_i [31:0] $end
$var wire 32 R immext_o [31:0] $end
$var reg 12 S imm [11:0] $end
$upscope $end
$scope module Instruction_Memory $end
$var wire 32 T instr_o [31:0] $end
$var wire 32 U addr_i [31:0] $end
$upscope $end
$scope module MUX_ALUsrc $end
$var wire 32 V y_o [31:0] $end
$var wire 1 W sel_i $end
$var wire 32 X b_i [31:0] $end
$var wire 32 Y a_i [31:0] $end
$upscope $end
$scope module MUX_ForwardA $end
$var wire 32 Z d_i [31:0] $end
$var wire 2 [ sel_i [1:0] $end
$var wire 32 \ y_o [31:0] $end
$var wire 32 ] c_i [31:0] $end
$var wire 32 ^ b_i [31:0] $end
$var wire 32 _ a_i [31:0] $end
$scope module MUX1 $end
$var wire 1 ` sel_i $end
$var wire 32 a y_o [31:0] $end
$var wire 32 b b_i [31:0] $end
$var wire 32 c a_i [31:0] $end
$upscope $end
$scope module MUX2 $end
$var wire 32 d b_i [31:0] $end
$var wire 1 e sel_i $end
$var wire 32 f y_o [31:0] $end
$var wire 32 g a_i [31:0] $end
$upscope $end
$scope module MUXFinal $end
$var wire 32 h a_i [31:0] $end
$var wire 32 i b_i [31:0] $end
$var wire 1 j sel_i $end
$var wire 32 k y_o [31:0] $end
$upscope $end
$upscope $end
$scope module MUX_ForwardB $end
$var wire 32 l d_i [31:0] $end
$var wire 2 m sel_i [1:0] $end
$var wire 32 n y_o [31:0] $end
$var wire 32 o c_i [31:0] $end
$var wire 32 p b_i [31:0] $end
$var wire 32 q a_i [31:0] $end
$scope module MUX1 $end
$var wire 1 r sel_i $end
$var wire 32 s y_o [31:0] $end
$var wire 32 t b_i [31:0] $end
$var wire 32 u a_i [31:0] $end
$upscope $end
$scope module MUX2 $end
$var wire 32 v b_i [31:0] $end
$var wire 1 w sel_i $end
$var wire 32 x y_o [31:0] $end
$var wire 32 y a_i [31:0] $end
$upscope $end
$scope module MUXFinal $end
$var wire 32 z a_i [31:0] $end
$var wire 32 { b_i [31:0] $end
$var wire 1 | sel_i $end
$var wire 32 } y_o [31:0] $end
$upscope $end
$upscope $end
$scope module MUX_MemtoReg $end
$var wire 32 ~ y_o [31:0] $end
$var wire 1 !" sel_i $end
$var wire 32 "" b_i [31:0] $end
$var wire 32 #" a_i [31:0] $end
$upscope $end
$scope module MUX_PCSrc $end
$var wire 1 @ sel_i $end
$var wire 32 $" y_o [31:0] $end
$var wire 32 %" b_i [31:0] $end
$var wire 32 &" a_i [31:0] $end
$upscope $end
$scope module PC $end
$var wire 1 O PCWrite_i $end
$var wire 1 ! clk_i $end
$var wire 32 '" pc_i [31:0] $end
$var wire 1 " rst_i $end
$var reg 32 (" pc_o [31:0] $end
$upscope $end
$scope module Reg_EXMEM $end
$var wire 32 )" alu_result_i [31:0] $end
$var wire 1 ! clk_i $end
$var wire 32 *" rs2_data_i [31:0] $end
$var wire 1 " rst_i $end
$var wire 1 +" regwrite_i $end
$var wire 5 ," rd_addr_i [4:0] $end
$var wire 1 -" memwrite_i $end
$var wire 1 ." memtoreg_i $end
$var wire 1 N memread_i $end
$var reg 32 /" alu_result_o [31:0] $end
$var reg 1 = memread_o $end
$var reg 1 0" memtoreg_o $end
$var reg 1 < memwrite_o $end
$var reg 5 1" rd_addr_o [4:0] $end
$var reg 1 E regwrite_o $end
$var reg 32 2" rs2_data_o [31:0] $end
$upscope $end
$scope module Reg_IDEX $end
$var wire 2 3" aluop_i [1:0] $end
$var wire 1 3 alusrc_i $end
$var wire 1 ! clk_i $end
$var wire 32 4" immext_i [31:0] $end
$var wire 1 5 memread_i $end
$var wire 1 6 memtoreg_i $end
$var wire 1 7 memwrite_i $end
$var wire 1 8 regwrite_i $end
$var wire 1 " rst_i $end
$var wire 32 5" rs2_data_i [31:0] $end
$var wire 5 6" rs2_addr_i [4:0] $end
$var wire 32 7" rs1_data_i [31:0] $end
$var wire 5 8" rs1_addr_i [4:0] $end
$var wire 5 9" rd_addr_i [4:0] $end
$var wire 7 :" funct7_i [6:0] $end
$var wire 3 ;" funct3_i [2:0] $end
$var reg 2 <" aluop_o [1:0] $end
$var reg 1 W alusrc_o $end
$var reg 3 =" funct3_o [2:0] $end
$var reg 7 >" funct7_o [6:0] $end
$var reg 32 ?" immext_o [31:0] $end
$var reg 1 N memread_o $end
$var reg 1 ." memtoreg_o $end
$var reg 1 -" memwrite_o $end
$var reg 5 @" rd_addr_o [4:0] $end
$var reg 1 +" regwrite_o $end
$var reg 5 A" rs1_addr_o [4:0] $end
$var reg 32 B" rs1_data_o [31:0] $end
$var reg 5 C" rs2_addr_o [4:0] $end
$var reg 32 D" rs2_data_o [31:0] $end
$upscope $end
$scope module Reg_IFID $end
$var wire 1 ! clk_i $end
$var wire 1 @ flush_i $end
$var wire 32 E" instr_addr_i [31:0] $end
$var wire 32 F" instr_i [31:0] $end
$var wire 1 " rst_i $end
$var wire 1 P stall_i $end
$var reg 32 G" instr_addr_o [31:0] $end
$var reg 32 H" instr_o [31:0] $end
$upscope $end
$scope module Reg_MEMWB $end
$var wire 32 I" alu_result_i [31:0] $end
$var wire 1 ! clk_i $end
$var wire 32 J" memdata_i [31:0] $end
$var wire 1 0" memtoreg_i $end
$var wire 5 K" rd_addr_i [4:0] $end
$var wire 1 E regwrite_i $end
$var wire 1 " rst_i $end
$var reg 32 L" alu_result_o [31:0] $end
$var reg 32 M" memdata_o [31:0] $end
$var reg 1 !" memtoreg_o $end
$var reg 5 N" rd_addr_o [4:0] $end
$var reg 1 C regwrite_o $end
$upscope $end
$scope module Registers $end
$var wire 5 O" RDaddr_i [4:0] $end
$var wire 32 P" RDdata_i [31:0] $end
$var wire 5 Q" RS1addr_i [4:0] $end
$var wire 5 R" RS2addr_i [4:0] $end
$var wire 1 C RegWrite_i $end
$var wire 1 ! clk_i $end
$var wire 1 " rst_i $end
$var wire 32 S" RS2data_o [31:0] $end
$var wire 32 T" RS1data_o [31:0] $end
$var integer 32 U" i [31:0] $end
$upscope $end
$upscope $end
$upscope $end
$enddefinitions $end
#0
$dumpvars
bx U"
bx T"
bx S"
bx R"
bx Q"
bx P"
bx O"
bx N"
bx M"
bx L"
bx K"
bx J"
bx I"
bx H"
bx G"
bx F"
bx E"
bx D"
bx C"
bx B"
bx A"
bx @"
bx ?"
bx >"
bx ="
bx <"
bx ;"
bx :"
bx 9"
bx 8"
bx 7"
bx 6"
bx 5"
bx 4"
bx 3"
bx 2"
bx 1"
x0"
bx /"
x."
x-"
bx ,"
x+"
bx *"
bx )"
bx ("
bx '"
bx &"
bx %"
bx $"
bx #"
bx ""
x!"
bx ~
bx }
x|
bx {
bx z
bx y
bx x
xw
b0 v
bx u
bx t
bx s
xr
bx q
bx p
bx o
bx n
bx m
b0 l
bx k
xj
bx i
bx h
bx g
bx f
xe
b0 d
bx c
bx b
bx a
x`
bx _
bx ^
bx ]
bx \
bx [
b0 Z
bx Y
bx X
xW
bx V
bx U
bx T
bx S
bx R
bx Q
xP
xO
xN
bx M
bx L
bx K
bx J
bx I
bx H
bx G
bx F
xE
bx D
xC
xB
xA
x@
bx ?
bx >
x=
x<
bx ;
bx :
bx 9
x8
x7
x6
x5
x4
x3
bx 2
x1
bx 0
bx /
bx .
bx -
bx ,
bx +
bx *
bx )
bx (
b0 '
b11 &
b100000 %
b0 $
b0 #
1"
0!
$end
#6
b0 +
b0 )"
b0 %"
b0 (
b0 V
04
03
b0 2
b0 3"
07
05
06
08
b0 Y
b0 n
b0 }
b0 *"
b0 *
b0 \
b0 k
0r
0w
0|
0`
0e
0j
b0 ?
b0 7"
b0 T"
b0 >
b0 5"
b0 S"
b100 $"
b100 '"
b110000010011 T
b110000010011 F"
b0 L
b0 K
b0 0
b0 Q"
b0 R"
b0 :"
b0 ;"
b0 8"
b0 6"
b0 9"
b0 R
b0 4"
b0 S
b0 s
b0 z
b0 a
b0 h
b0 )
b0 /
1O
01
0P
b0 x
b0 {
b0 f
b0 i
b0 9
b0 J"
0A
b0 J
b0 m
b0 I
b0 [
b0 ^
b0 b
b0 p
b0 t
b0 ~
b0 P"
0B
b100 &"
b0 U
b0 ("
b0 E"
b0 Q
b0 H"
b0 G"
b0 M
b0 ,"
b0 @"
b0 G
b0 C"
b0 H
b0 A"
b0 -
b0 ="
b0 ,
b0 >"
b0 X
b0 ?"
b0 q
b0 u
b0 D"
b0 _
b0 c
b0 B"
0W
b0 .
b0 <"
0-"
0N
0."
0+"
b0 F
b0 1"
b0 K"
b0 :
b0 2"
b0 ;
b0 ]
b0 g
b0 o
b0 y
b0 /"
b0 I"
0<
0=
00"
0E
b0 D
b0 N"
b0 O"
b0 ""
b0 M"
b0 #"
b0 L"
0!"
0C
0@
b100000 U"
0"
#12
1"
#25
13
18
b1001 0
b11000 9"
b1000 $"
b1000 '"
b10000000000110100010011 T
b10000000000110100010011 F"
b110000010011 Q
b110000010011 H"
b1000 &"
b100 U
b100 ("
b100 E"
b1 #
1!
#50
0!
#75
b1100 $"
b1100 '"
b10000000000111000010011 T
b10000000000111000010011 F"
b100 K
b100 R"
b100 6"
b11010 9"
b100 R
b100 4"
b100 S
b1100 &"
b1000 U
b1000 ("
b1000 E"
b10000000000110100010011 Q
b10000000000110100010011 H"
b1100 %"
b100 G"
b11000 M
b11000 ,"
b11000 @"
1W
1+"
b10 #
1!
#100
0!
#125
b100 +
b100 )"
1A
b100 (
b100 V
b11100 9"
b10000 $"
b10000 '"
b11111111111100000000011110010011 T
b11111111111100000000011110010011 F"
b11000 F
b11000 1"
b11000 K"
1E
b11010 M
b11010 ,"
b11010 @"
b100 G
b100 C"
b100 X
b100 ?"
b10000000000111000010011 Q
b10000000000111000010011 H"
b10000 %"
b1000 G"
b10000 &"
b1100 U
b1100 ("
b1100 E"
b11 #
1!
#150
0!
#175
b111110 >
b111110 5"
b111110 S"
b10100 $"
b10100 '"
b11110011010000110010110011 T
b11110011010000110010110011 F"
b11111 K
b11111 R"
b1111111 :"
b11111 6"
b1111 9"
b11111111111111111111111111111111 R
b11111111111111111111111111111111 4"
b111111111111 S
b100 x
b100 {
b100 f
b100 i
1B
b10100 &"
b10000 U
b10000 ("
b10000 E"
b11111111111100000000011110010011 Q
b11111111111100000000011110010011 H"
b1010 %"
b1100 G"
b11100 M
b11100 ,"
b11100 @"
b11010 F
b11010 1"
b11010 K"
b100 ;
b100 ]
b100 g
b100 o
b100 y
b100 /"
b100 I"
b11000 D
b11000 N"
b11000 O"
1C
b100 #
1!
#200
0!
#225
b11111111111111111111111111111111 +
b11111111111111111111111111111111 )"
b111110 Y
b111110 n
b111110 }
b111110 *"
03
b10 2
b10 3"
b100 ?
b100 7"
b100 T"
b111000 >
b111000 5"
b111000 S"
b100 ^
b100 b
b100 p
b100 t
b100 ~
b100 P"
b11111111111111111111111111111111 (
b11111111111111111111111111111111 V
b111110 s
b111110 z
b11010 L
b11100 K
b11001 0
b11010 Q"
b11100 R"
b1 :"
b11010 8"
b11100 6"
b11001 9"
b0 R
b0 4"
b0 S
b11000 $"
b11000 '"
b11111111111111010000110100010011 T
b11111111111111010000110100010011 F"
b11010 D
b11010 N"
b11010 O"
b100 #"
b100 L"
b11100 F
b11100 1"
b11100 K"
b1111 M
b1111 ,"
b1111 @"
b11111 G
b11111 C"
b1111111 ,
b1111111 >"
b11111111111111111111111111111111 X
b11111111111111111111111111111111 ?"
b111110 q
b111110 u
b111110 D"
b11110011010000110010110011 Q
b11110011010000110010110011 H"
b10000 %"
b10000 G"
b11000 &"
b10100 U
b10100 ("
b10100 E"
b101 #
1!
#250
0!
#275
13
b0 2
b0 3"
b100 Y
b100 n
b100 }
b100 *"
b100 *
b100 \
b100 k
b10000 +
b10000 )"
b111110 >
b111110 5"
b111110 S"
1r
1w
b11100 $"
b11100 '"
b11001010110110000011 T
b11001010110110000011 F"
b11111 K
b1001 0
b11111 R"
b1111111 :"
b11111 6"
b11010 9"
b11111111111111111111111111111111 R
b11111111111111111111111111111111 4"
b111111111111 S
b100 s
b100 z
b100 a
b100 h
b100 (
b100 V
b1111 )
b1111 /
b0 x
b0 {
b11111111111111111111111111111111 f
b11111111111111111111111111111111 i
b1 J
b1 m
b11100 &"
b11000 U
b11000 ("
b11000 E"
b11111111111111010000110100010011 Q
b11111111111111010000110100010011 H"
b10010 %"
b10100 G"
b11001 M
b11001 ,"
b11001 @"
b11100 G
b11100 C"
b11010 H
b11010 A"
b1 ,
b1 >"
b0 X
b0 ?"
b111000 q
b111000 u
b111000 D"
b100 _
b100 c
b100 B"
0W
b10 .
b10 <"
b1111 F
b1111 1"
b1111 K"
b111110 :
b111110 2"
b11111111111111111111111111111111 ;
b11111111111111111111111111111111 ]
b11111111111111111111111111111111 g
b11111111111111111111111111111111 o
b11111111111111111111111111111111 y
b11111111111111111111111111111111 /"
b11111111111111111111111111111111 I"
b11100 D
b11100 N"
b11100 O"
b110 #
1!
#300
0!
#325
b111110 Y
b111110 n
b111110 }
b111110 *"
b10000 x
b10000 {
b111110 s
b111110 z
0r
0w
b11 +
b11 )"
15
16
b11111111111111111111111111100111 ?
b11111111111111111111111111100111 7"
b11111111111111111111111111100111 T"
b0 >
b0 5"
b0 S"
b11111111111111111111111111111111 ^
b11111111111111111111111111111111 b
b11111111111111111111111111111111 p
b11111111111111111111111111111111 t
b11111111111111111111111111111111 ~
b11111111111111111111111111111111 P"
b10000 f
b10000 i
b0 J
b0 m
b11111111111111111111111111111111 (
b11111111111111111111111111111111 V
b0 )
b0 /
b11001 L
b0 K
b1 0
b11001 Q"
b0 R"
b0 :"
b10 ;"
b11001 8"
b0 6"
b11011 9"
b0 R
b0 4"
b0 S
b100000 $"
b100000 '"
b1101111000000110000110011 T
b1101111000000110000110011 F"
b1111 D
b1111 N"
b1111 O"
b11111111111111111111111111111111 #"
b11111111111111111111111111111111 L"
b11001 F
b11001 1"
b11001 K"
b100 :
b100 2"
b10000 ;
b10000 ]
b10000 g
b10000 o
b10000 y
b10000 /"
b10000 I"
b11010 M
b11010 ,"
b11010 @"
b11111 G
b11111 C"
b1111111 ,
b1111111 >"
b11111111111111111111111111111111 X
b11111111111111111111111111111111 ?"
b111110 q
b111110 u
b111110 D"
1W
b0 .
b0 <"
b11001010110110000011 Q
b11001010110110000011 H"
b11000 %"
b11000 G"
b100000 &"
b11100 U
b11100 ("
b11100 E"
b111 #
1!
#350
0!
#375
08
0O
11
1P
03
b0 2
b0 3"
05
06
b11111111111111111111111111100101 >
b11111111111111111111111111100101 5"
b11111111111111111111111111100101 S"
b10000 +
b10000 )"
b0 Y
b0 n
b0 }
b0 *"
b10000 *
b10000 \
b10000 k
b0 ?
b0 7"
b0 T"
1`
1e
b100100 $"
b100100 '"
b111111010000010001100011 T
b111111010000010001100011 F"
b11000 L
b11011 K
b11001 0
b11000 Q"
b11011 R"
b0 ;"
b11000 8"
b11011 6"
b11000 9"
b0 (
b0 V
b0 s
b0 z
b10000 a
b10000 h
b11 x
b11 {
b0 f
b0 i
b1 I
b1 [
b10000 ^
b10000 b
b10000 p
b10000 t
b10000 ~
b10000 P"
b100100 &"
b100000 U
b100000 ("
b100000 E"
b1101111000000110000110011 Q
b1101111000000110000110011 H"
b11100 %"
b11100 G"
b11011 M
b11011 ,"
b11011 @"
b0 G
b0 C"
b11001 H
b11001 A"
b10 -
b10 ="
b0 ,
b0 >"
b0 X
b0 ?"
b0 q
b0 u
b0 D"
b11111111111111111111111111100111 _
b11111111111111111111111111100111 c
b11111111111111111111111111100111 B"
1N
1."
b11010 F
b11010 1"
b11010 K"
b111110 :
b111110 2"
b11 ;
b11 ]
b11 g
b11 o
b11 y
b11 /"
b11 I"
b11001 D
b11001 N"
b11001 O"
b10000 #"
b10000 L"
b1000 #
1!
#400
0!
#425
b10000 +
b10000 )"
b0 *
b0 \
b0 k
b10000 f
b10000 i
b10000 (
b10000 V
b0 a
b0 h
1|
0`
0e
b10000 Y
b10000 n
b10000 }
b10000 *"
b10 2
b10 3"
18
b11 ^
b11 b
b11 p
b11 t
b11 ~
b11 P"
b10000 x
b10000 {
b11101 9
b11101 J"
b10 J
b10 m
b0 I
b0 [
b11111111111111111111111111100101 s
b11111111111111111111111111100101 z
1O
01
0P
b11010 D
b11010 N"
b11010 O"
b11 #"
b11 L"
b11011 F
b11011 1"
b11011 K"
b0 :
b0 2"
b10000 ;
b10000 ]
b10000 g
b10000 o
b10000 y
b10000 /"
b10000 I"
1=
10"
b11000 M
b11000 ,"
b11000 @"
b11011 G
b11011 C"
b11000 H
b11000 A"
b0 -
b0 ="
b11111111111111111111111111100101 q
b11111111111111111111111111100101 u
b11111111111111111111111111100101 D"
b0 _
b0 c
b0 B"
0W
0N
0."
0+"
b1001 #
b1 '
1!
#450
0!
#475
b11101 (
b11101 V
b11101 +
b11101 )"
b11101 s
b11101 z
b0 x
b0 {
b11101 Y
b11101 n
b11101 }
b11101 *"
b0 *
b0 \
b0 k
14
b1 2
b1 3"
08
b11 ?
b11 7"
b11 T"
b11111111111111111111111111111111 >
b11111111111111111111111111111111 5"
b11111111111111111111111111111111 S"
1r
1w
0|
0j
b101000 $"
b101000 '"
b11111110000000000000011011100011 T
b11111110000000000000011011100011 F"
b11010 L
b1111 K
b110001 0
b11010 Q"
b1111 R"
b11010 8"
b1111 6"
b1000 9"
b100 R
b100 4"
b100 S
b0 9
b0 J"
0A
b1 J
b1 m
b0 I
b0 [
b11101 ^
b11101 b
b11101 p
b11101 t
b11101 ~
b11101 P"
b101000 &"
b100100 U
b100100 ("
b100100 E"
b111111010000010001100011 Q
b111111010000010001100011 H"
b101000 %"
b100000 G"
b10 .
b10 <"
1+"
b11000 F
b11000 1"
b11000 K"
b10000 :
b10000 2"
0=
00"
0E
b11011 D
b11011 N"
b11011 O"
b11101 ""
b11101 M"
b10000 #"
b10000 L"
1!"
b1010 #
1!
#500
0!
#525
b11111111111111111111111111111111 (
b11111111111111111111111111111111 V
b11111111111111111111111111111111 Y
b11111111111111111111111111111111 n
b11111111111111111111111111111111 }
b11111111111111111111111111111111 *"
b11101 x
b11101 {
b10 +
b10 )"
1@
b11111111111111111111111111111111 s
b11111111111111111111111111111111 z
0r
0w
b11 *
b11 \
b11 k
b0 ?
b0 7"
b0 T"
b0 >
b0 5"
b0 S"
b10000 ^
b10000 b
b10000 p
b10000 t
b10000 ~
b10000 P"
0B
b11101 f
b11101 i
1A
b0 J
b0 m
b11 a
b11 h
b0 L
b0 K
b0 Q"
b0 R"
b1111111 :"
b0 8"
b0 6"
b1101 9"
b11111111111111111111111111110110 R
b11111111111111111111111111110110 4"
b111111110110 S
b10000 $"
b10000 '"
b1100000000010111000100011 T
b1100000000010111000100011 F"
b11000 D
b11000 N"
b11000 O"
b0 ""
b0 M"
0!"
0C
b11101 :
b11101 2"
b11101 ;
b11101 ]
b11101 g
b11101 o
b11101 y
b11101 /"
b11101 I"
1E
b1000 M
b1000 ,"
b1000 @"
b1111 G
b1111 C"
b11010 H
b11010 A"
b100 X
b100 ?"
b11111111111111111111111111111111 q
b11111111111111111111111111111111 u
b11111111111111111111111111111111 D"
b11 _
b11 c
b11 B"
b1 .
b1 <"
0+"
b11111110000000000000011011100011 Q
b11111110000000000000011011100011 H"
b10000 %"
b100100 G"
b101100 &"
b101000 U
b101000 ("
b101000 E"
b1011 #
1!
#550
0!
#575
0@
b0 (
b0 V
b0 +
b0 )"
04
b0 2
b0 3"
b0 Y
b0 n
b0 }
b0 *"
b0 *
b0 \
b0 k
b11110011010000110010110011 T
b11110011010000110010110011 F"
b0 0
b0 :"
b0 9"
b0 R
b0 4"
b0 S
b10100 $"
b10100 '"
b0 s
b0 z
b0 a
b0 h
b10 x
b10 {
b10 f
b10 i
0A
b11101 ^
b11101 b
b11101 p
b11101 t
b11101 ~
b11101 P"
1B
b10100 &"
b10000 U
b10000 ("
b10000 E"
b0 Q
b0 H"
b0 %"
b0 G"
b1101 M
b1101 ,"
b1101 @"
b0 G
b0 C"
b0 H
b0 A"
b1111111 ,
b1111111 >"
b11111111111111111111111111110110 X
b11111111111111111111111111110110 ?"
b0 q
b0 u
b0 D"
b0 _
b0 c
b0 B"
b1000 F
b1000 1"
b1000 K"
b11111111111111111111111111111111 :
b11111111111111111111111111111111 2"
b10 ;
b10 ]
b10 g
b10 o
b10 y
b10 /"
b10 I"
0E
b11101 #"
b11101 L"
1C
b1100 #
b1 $
1!
#600
0!
#625
b10 2
b10 3"
18
b11 ?
b11 7"
b11 T"
b100 >
b100 5"
b100 S"
b10 ^
b10 b
b10 p
b10 t
b10 ~
b10 P"
0B
b0 x
b0 {
b0 f
b0 i
b11010 L
b11100 K
b11001 0
b11010 Q"
b11100 R"
b1 :"
b11010 8"
b11100 6"
b11001 9"
b11000 $"
b11000 '"
b11111111111111010000110100010011 T
b11111111111111010000110100010011 F"
b1000 D
b1000 N"
b1000 O"
b10 #"
b10 L"
0C
b1101 F
b1101 1"
b1101 K"
b0 :
b0 2"
b0 ;
b0 ]
b0 g
b0 o
b0 y
b0 /"
b0 I"
b0 M
b0 ,"
b0 @"
b0 ,
b0 >"
b0 X
b0 ?"
b0 .
b0 <"
b11110011010000110010110011 Q
b11110011010000110010110011 H"
b10000 %"
b10000 G"
b11000 &"
b10100 U
b10100 ("
b10100 E"
b1101 #
1!
#650
0!
#675
b1100 +
b1100 )"
b100 (
b100 V
13
b0 2
b0 3"
b111110 >
b111110 5"
b111110 S"
b100 Y
b100 n
b100 }
b100 *"
b11 *
b11 \
b11 k
b11100 $"
b11100 '"
b11001010110110000011 T
b11001010110110000011 F"
b11111 K
b1001 0
b11111 R"
b1111111 :"
b11111 6"
b11010 9"
b11111111111111111111111111111111 R
b11111111111111111111111111111111 4"
b111111111111 S
b100 s
b100 z
b11 a
b11 h
b1111 )
b1111 /
b0 ^
b0 b
b0 p
b0 t
b0 ~
b0 P"
b11100 &"
b11000 U
b11000 ("
b11000 E"
b11111111111111010000110100010011 Q
b11111111111111010000110100010011 H"
b10010 %"
b10100 G"
b11001 M
b11001 ,"
b11001 @"
b11100 G
b11100 C"
b11010 H
b11010 A"
b1 ,
b1 >"
b100 q
b100 u
b100 D"
b11 _
b11 c
b11 B"
b10 .
b10 <"
1+"
b0 F
b0 1"
b0 K"
b1101 D
b1101 N"
b1101 O"
b0 #"
b0 L"
b1110 #
1!
#700
0!
#725
b111110 Y
b111110 n
b111110 }
b111110 *"
b10 +
b10 )"
15
16
b10000 ?
b10000 7"
b10000 T"
b0 >
b0 5"
b0 S"
b1100 x
b1100 {
b1100 f
b1100 i
1A
b111110 s
b111110 z
b11111111111111111111111111111111 (
b11111111111111111111111111111111 V
b0 )
b0 /
b11001 L
b0 K
b1 0
b11001 Q"
b0 R"
b0 :"
b10 ;"
b11001 8"
b0 6"
b11011 9"
b0 R
b0 4"
b0 S
b100000 $"
b100000 '"
b1101111000000110000110011 T
b1101111000000110000110011 F"
b0 D
b0 N"
b0 O"
b11001 F
b11001 1"
b11001 K"
b100 :
b100 2"
b1100 ;
b1100 ]
b1100 g
b1100 o
b1100 y
b1100 /"
b1100 I"
1E
b11010 M
b11010 ,"
b11010 @"
b11111 G
b11111 C"
b1111111 ,
b1111111 >"
b11111111111111111111111111111111 X
b11111111111111111111111111111111 ?"
b111110 q
b111110 u
b111110 D"
1W
b0 .
b0 <"
b11001010110110000011 Q
b11001010110110000011 H"
b11000 %"
b11000 G"
b100000 &"
b11100 U
b11100 ("
b11100 E"
b1111 #
1!
#750
0!
#775
08
0O
11
1P
03
b0 2
b0 3"
05
06
b11101 >
b11101 5"
b11101 S"
b1100 +
b1100 )"
b0 Y
b0 n
b0 }
b0 *"
b1100 *
b1100 \
b1100 k
1`
1e
b11101 ?
b11101 7"
b11101 T"
b100100 $"
b100100 '"
b111111010000010001100011 T
b111111010000010001100011 F"
b11000 L
b11011 K
b11001 0
b11000 Q"
b11011 R"
b0 ;"
b11000 8"
b11011 6"
b11000 9"
b0 (
b0 V
b0 s
b0 z
b1100 a
b1100 h
b10 x
b10 {
b0 f
b0 i
b1 I
b1 [
b1100 ^
b1100 b
b1100 p
b1100 t
b1100 ~
b1100 P"
1B
b100100 &"
b100000 U
b100000 ("
b100000 E"
b1101111000000110000110011 Q
b1101111000000110000110011 H"
b11100 %"
b11100 G"
b11011 M
b11011 ,"
b11011 @"
b0 G
b0 C"
b11001 H
b11001 A"
b10 -
b10 ="
b0 ,
b0 >"
b0 X
b0 ?"
b0 q
b0 u
b0 D"
b10000 _
b10000 c
b10000 B"
1N
1."
b11010 F
b11010 1"
b11010 K"
b111110 :
b111110 2"
b10 ;
b10 ]
b10 g
b10 o
b10 y
b10 /"
b10 I"
b11001 D
b11001 N"
b11001 O"
b1100 #"
b1100 L"
1C
b10000 #
1!
#800
0!
#825
b101001 +
b101001 )"
b11101 *
b11101 \
b11101 k
b1100 f
b1100 i
b1100 (
b1100 V
b11101 a
b11101 h
1|
0`
0e
b1100 Y
b1100 n
b1100 }
b1100 *"
b10 2
b10 3"
18
b10 ^
b10 b
b10 p
b10 t
b10 ~
b10 P"
b1100 x
b1100 {
b10010 9
b10010 J"
b10 J
b10 m
b0 I
b0 [
b11101 s
b11101 z
1O
01
0P
b11010 D
b11010 N"
b11010 O"
b10 #"
b10 L"
b11011 F
b11011 1"
b11011 K"
b0 :
b0 2"
b1100 ;
b1100 ]
b1100 g
b1100 o
b1100 y
b1100 /"
b1100 I"
1=
10"
b11000 M
b11000 ,"
b11000 @"
b11011 G
b11011 C"
b11000 H
b11000 A"
b0 -
b0 ="
b11101 q
b11101 u
b11101 D"
b11101 _
b11101 c
b11101 B"
0W
0N
0."
0+"
b10001 #
b10 '
1!
#850
0!
#875
b101111 +
b101111 )"
b10010 (
b10010 V
b10010 s
b10010 z
b11101 *
b11101 \
b11101 k
14
b1 2
b1 3"
08
b10 ?
b10 7"
b10 T"
b10010 Y
b10010 n
b10010 }
b10010 *"
b11111111111111111111111111111111 >
b11111111111111111111111111111111 5"
b11111111111111111111111111111111 S"
1r
1w
0|
0j
b101000 $"
b101000 '"
b11111110000000000000011011100011 T
b11111110000000000000011011100011 F"
b11010 L
b1111 K
b110001 0
b11010 Q"
b1111 R"
b11010 8"
b1111 6"
b1000 9"
b100 R
b100 4"
b100 S
b0 x
b0 {
b101001 f
b101001 i
b0 9
b0 J"
0A
b1 J
b1 m
b0 I
b0 [
b10010 ^
b10010 b
b10010 p
b10010 t
b10010 ~
b10010 P"
b101000 &"
b100100 U
b100100 ("
b100100 E"
b111111010000010001100011 Q
b111111010000010001100011 H"
b101000 %"
b100000 G"
b10 .
b10 <"
1+"
b11000 F
b11000 1"
b11000 K"
b1100 :
b1100 2"
b101001 ;
b101001 ]
b101001 g
b101001 o
b101001 y
b101001 /"
b101001 I"
0=
00"
0E
b11011 D
b11011 N"
b11011 O"
b10010 ""
b10010 M"
b1100 #"
b1100 L"
1!"
b10010 #
1!
#900
0!
